0j
0j
0j
0j
0j
0j
0j
0j
0j
0j
0j
0j
0j
0j
0j
0j
0j
0j
0j
0j
0j
-3.0517061532009393e-05j
(3.0517061532009393e-05+3.0517061532009393e-05j)
(-9.155118459602818e-05+0j)
(-0.00024413649225607514-6.1034123064018786e-05j)
(9.155118459602818e-05+9.155118459602818e-05j)
(-0.00018310236919205636+6.1034123064018786e-05j)
(6.1034123064018786e-05+0j)
(0.00015258530038408935-0.00042723887600004673j)
(-0.00012206824612803757+0j)
(0.00012206824612803757-3.0517061532009393e-05j)
(-0.0003662047383841127+9.155118459602818e-05j)
(3.0517061532009393e-05-0.00012206824612803757j)
(-0.00012206824612803757-0.00018310236919205636j)
(-9.155118459602818e-05-0.0003051706007681787j)
(-3.0517061532009393e-05+0.00012206824612803757j)
(-0.00018310236919205636-3.0517061532009393e-05j)
(0.00021361943800002337-6.1034123064018786e-05j)
(3.0517061532009393e-05-0.00015258530038408935j)
(3.0517061532009393e-05-0.00015258530038408935j)
(-0.00021361943800002337+9.155118459602818e-05j)
(-6.1034123064018786e-05-0.0003662047383841127j)
(-9.155118459602818e-05+0j)
(0.00015258530038408935-6.1034123064018786e-05j)
(0.00012206824612803757-0.00015258530038408935j)
(-3.0517061532009393e-05+0.00015258530038408935j)
(0.00015258530038408935+0.00018310236919205636j)
(6.1034123064018786e-05+0j)
(6.1034123064018786e-05+0.00015258530038408935j)
0.00015258530038408935j
(-3.0517061532009393e-05+0j)
(-6.1034123064018786e-05-0.0003051706007681787j)
0j
(3.0517061532009393e-05+0j)
(-0.00033568768412806094-0.00018310236919205636j)
(0.00012206824612803757+9.155118459602818e-05j)
(-9.155118459602818e-05+0.00024413649225607514j)
(9.155118459602818e-05+6.1034123064018786e-05j)
(-0.00033568768412806094-0.00012206824612803757j)
(6.1034123064018786e-05+0.00012206824612803757j)
(0.00018310236919205636-0.00015258530038408935j)
(-0.00012206824612803757-0.00021361943800002337j)
(0.0002746535465121269+0j)
(-0.00021361943800002337+0.00024413649225607514j)
(6.1034123064018786e-05-0.0003051706007681787j)
(-0.0003051706007681787+3.0517061532009393e-05j)
(-0.00018310236919205636-0.00021361943800002337j)
(0.00015258530038408935-0.00015258530038408935j)
(-9.155118459602818e-05-0.0003662047383841127j)
(-3.0517061532009393e-05-9.155118459602818e-05j)
(9.155118459602818e-05-0.00012206824612803757j)
(0.00018310236919205636+0j)
(-0.00018310236919205636+0j)
(-0.00015258530038408935+0j)
(6.1034123064018786e-05+3.0517061532009393e-05j)
(0.00015258530038408935-0.00021361943800002337j)
0j
(-3.0517061532009393e-05-3.0517061532009393e-05j)
(0.00024413649225607514-0.00012206824612803757j)
(-0.00021361943800002337+0.0003051706007681787j)
(9.155118459602818e-05-0.00021361943800002337j)
(-0.0003662047383841127-6.1034123064018786e-05j)
(-0.00015258530038408935+0.00012206824612803757j)
(-3.0517061532009393e-05+0.00012206824612803757j)
(-0.00015258530038408935-3.0517061532009393e-05j)
(-0.00018310236919205636-0.00018310236919205636j)
(-0.00015258530038408935+0.0003967217926401645j)
(-0.00012206824612803757-0.00024413649225607514j)
(0.0003051706007681787-9.155118459602818e-05j)
(-0.00033568768412806094+9.155118459602818e-05j)
(-0.00024413649225607514-6.1034123064018786e-05j)
(0.00021361943800002337-3.0517061532009393e-05j)
-3.0517061532009393e-05j
3.0517061532009393e-05j
(0.00012206824612803757-0.00021361943800002337j)
(9.155118459602818e-05+0.00018310236919205636j)
(-0.0002746535465121269+9.155118459602818e-05j)
(-0.00018310236919205636-6.1034123064018786e-05j)
(-0.0002746535465121269-0.00012206824612803757j)
(-0.00012206824612803757-0.00033568768412806094j)
(0.00018310236919205636+0j)
(-3.0517061532009393e-05+9.155118459602818e-05j)
(0.00018310236919205636-6.1034123064018786e-05j)
(0.00015258530038408935+0.00012206824612803757j)
(9.155118459602818e-05-9.155118459602818e-05j)
(-0.00012206824612803757+0.00012206824612803757j)
(-0.00018310236919205636+6.1034123064018786e-05j)
(3.0517061532009393e-05-3.0517061532009393e-05j)
(-6.1034123064018786e-05-0.00018310236919205636j)
(-0.00033568768412806094-3.0517061532009393e-05j)
(0.00012206824612803757-9.155118459602818e-05j)
3.0517061532009393e-05j
0.00015258530038408935j
(0.0003051706007681787-0.00018310236919205636j)
(9.155118459602818e-05-0.00015258530038408935j)
(6.1034123064018786e-05-6.1034123064018786e-05j)
(-9.155118459602818e-05-0.00012206824612803757j)
(-3.0517061532009393e-05+3.0517061532009393e-05j)
(-6.1034123064018786e-05+0j)
(-3.0517061532009393e-05+3.0517061532009393e-05j)
(3.0517061532009393e-05-6.1034123064018786e-05j)
(-0.0002746535465121269-0.0006103412015363574j)
(-0.00012206824612803757+0j)
(-0.00015258530038408935-0.00021361943800002337j)
(-0.00012206824612803757-0.00018310236919205636j)
(-3.0517061532009393e-05-3.0517061532009393e-05j)
(6.1034123064018786e-05-6.1034123064018786e-05j)
(-0.00018310236919205636-0.00012206824612803757j)
(0.00021361943800002337-3.0517061532009393e-05j)
(0.0002746535465121269-0.0003051706007681787j)
(3.0517061532009393e-05-0.00024413649225607514j)
(0.00012206824612803757-9.155118459602818e-05j)
(0.00021361943800002337-6.1034123064018786e-05j)
(0.00015258530038408935-0.00012206824612803757j)
(-0.00015258530038408935-0.00012206824612803757j)
(0.00012206824612803757+0j)
(9.155118459602818e-05-6.1034123064018786e-05j)
0.00012206824612803757j
(-6.1034123064018786e-05+6.1034123064018786e-05j)
(6.1034123064018786e-05-0.00015258530038408935j)
(-0.0003051706007681787+0j)
(-0.0003051706007681787-0.00024413649225607514j)
0.0002746535465121269j
(0.00018310236919205636-0.00021361943800002337j)
-3.0517061532009393e-05j
(-0.00024413649225607514-3.0517061532009393e-05j)
0j
(-0.00021361943800002337-6.1034123064018786e-05j)
(6.1034123064018786e-05+0.00018310236919205636j)
(0.00012206824612803757+0j)
(-0.0002746535465121269+0.00015258530038408935j)
(-3.0517061532009393e-05-3.0517061532009393e-05j)
(-9.155118459602818e-05+0.0003051706007681787j)
(-0.00012206824612803757+6.1034123064018786e-05j)
(6.1034123064018786e-05+9.155118459602818e-05j)
(0.00015258530038408935+9.155118459602818e-05j)
(6.1034123064018786e-05-0.00018310236919205636j)
(-3.0517061532009393e-05-0.0002746535465121269j)
(0.00012206824612803757-0.00012206824612803757j)
(-0.00012206824612803757+0j)
(-0.00018310236919205636+0.00015258530038408935j)
(3.0517061532009393e-05+3.0517061532009393e-05j)
(3.0517061532009393e-05-3.0517061532009393e-05j)
(-3.0517061532009393e-05+0.0003051706007681787j)
(-0.00018310236919205636+0.00012206824612803757j)
(-3.0517061532009393e-05+9.155118459602818e-05j)
(-3.0517061532009393e-05-0.00033568768412806094j)
(3.0517061532009393e-05-0.00012206824612803757j)
(6.1034123064018786e-05-0.0003051706007681787j)
(-0.00015258530038408935+0.00018310236919205636j)
(0.0002746535465121269-6.1034123064018786e-05j)
(6.1034123064018786e-05-3.0517061532009393e-05j)
(-6.1034123064018786e-05+3.0517061532009393e-05j)
(6.1034123064018786e-05-6.1034123064018786e-05j)
(6.1034123064018786e-05+3.0517061532009393e-05j)
(9.155118459602818e-05-9.155118459602818e-05j)
(-9.155118459602818e-05-0.00012206824612803757j)
(-3.0517061532009393e-05-9.155118459602818e-05j)
(-0.00015258530038408935+6.1034123064018786e-05j)
(9.155118459602818e-05+0.00015258530038408935j)
(-0.00018310236919205636-0.0002746535465121269j)
(6.1034123064018786e-05+0.0002746535465121269j)
(6.1034123064018786e-05-6.1034123064018786e-05j)
(0.00033568768412806094+3.0517061532009393e-05j)
(0.00012206824612803757-6.1034123064018786e-05j)
(-0.00012206824612803757-0.00012206824612803757j)
(0.00018310236919205636+6.1034123064018786e-05j)
(-0.00012206824612803757+3.0517061532009393e-05j)
(0.00021361943800002337-9.155118459602818e-05j)
(0.00015258530038408935-9.155118459602818e-05j)
(-0.00033568768412806094+0.00015258530038408935j)
(0.00012206824612803757+0j)
(0.0003051706007681787+6.1034123064018786e-05j)
(6.1034123064018786e-05-6.1034123064018786e-05j)
(0.00018310236919205636+0j)
(3.0517061532009393e-05+0.00015258530038408935j)
(-0.00024413649225607514-0.00024413649225607514j)
(-0.00033568768412806094+0.00015258530038408935j)
-6.1034123064018786e-05j
(-0.0003051706007681787-0.00012206824612803757j)
(-0.0002746535465121269-0.00012206824612803757j)
-3.0517061532009393e-05j
(3.0517061532009393e-05+0j)
(3.0517061532009393e-05-0.00021361943800002337j)
(-0.00015258530038408935-9.155118459602818e-05j)
(6.1034123064018786e-05-3.0517061532009393e-05j)
(-6.1034123064018786e-05-0.00015258530038408935j)
(-9.155118459602818e-05+3.0517061532009393e-05j)
(0.0003051706007681787-9.155118459602818e-05j)
(-3.0517061532009393e-05-0.00021361943800002337j)
(3.0517061532009393e-05-3.0517061532009393e-05j)
(0.00015258530038408935-0.00012206824612803757j)
(0.00021361943800002337+0.00018310236919205636j)
(-0.00033568768412806094-0.00015258530038408935j)
(0.00021361943800002337-0.00021361943800002337j)
(-6.1034123064018786e-05-0.00021361943800002337j)
(6.1034123064018786e-05+0.0002746535465121269j)
(-0.00018310236919205636+3.0517061532009393e-05j)
(0.00021361943800002337-9.155118459602818e-05j)
(0.0002746535465121269+0.00021361943800002337j)
(0.00024413649225607514+6.1034123064018786e-05j)
(6.1034123064018786e-05+3.0517061532009393e-05j)
(-9.155118459602818e-05+9.155118459602818e-05j)
(-0.00015258530038408935-0.00033568768412806094j)
(0.00021361943800002337+0.00021361943800002337j)
(-9.155118459602818e-05-0.00018310236919205636j)
(0.00024413649225607514-9.155118459602818e-05j)
(0.00021361943800002337-9.155118459602818e-05j)
(-0.0003051706007681787-0.0003051706007681787j)
(-0.00024413649225607514+0j)
-0.00012206824612803757j
(6.1034123064018786e-05-0.00012206824612803757j)
(-0.00021361943800002337-0.0002746535465121269j)
(0.00024413649225607514-0.00012206824612803757j)
(0.00018310236919205636-0.00021361943800002337j)
-0.00015258530038408935j
(9.155118459602818e-05-0.00033568768412806094j)
(0.00021361943800002337-0.00012206824612803757j)
(-3.0517061532009393e-05-0.00015258530038408935j)
-0.00033568768412806094j
(-3.0517061532009393e-05+6.1034123064018786e-05j)
(3.0517061532009393e-05+0.00012206824612803757j)
(6.1034123064018786e-05+0.00021361943800002337j)
(3.0517061532009393e-05-0.00012206824612803757j)
(0.00018310236919205636-0.00018310236919205636j)
(-0.00015258530038408935+0j)
(-6.1034123064018786e-05-0.00018310236919205636j)
(6.1034123064018786e-05-0.00024413649225607514j)
(-0.00018310236919205636-6.1034123064018786e-05j)
(-0.0002746535465121269-0.00012206824612803757j)
(-6.1034123064018786e-05-0.00012206824612803757j)
(0.00021361943800002337-6.1034123064018786e-05j)
(-0.00015258530038408935+0.00018310236919205636j)
(9.155118459602818e-05+9.155118459602818e-05j)
(0.00024413649225607514-3.0517061532009393e-05j)
(-6.1034123064018786e-05-0.00012206824612803757j)
(9.155118459602818e-05+0.00024413649225607514j)
(-0.0002746535465121269-0.00018310236919205636j)
(3.0517061532009393e-05-0.0003051706007681787j)
(-0.00021361943800002337-0.00018310236919205636j)
(3.0517061532009393e-05-3.0517061532009393e-05j)
(0.0003967217926401645+9.155118459602818e-05j)
(0.00024413649225607514-0.00042723887600004673j)
(-9.155118459602818e-05+9.155118459602818e-05j)
(9.155118459602818e-05-0.00015258530038408935j)
(0.00012206824612803757-0.0003051706007681787j)
(3.0517061532009393e-05+0.00021361943800002337j)
(-0.00015258530038408935-3.0517061532009393e-05j)
(-0.00018310236919205636-0.00021361943800002337j)
(0.00018310236919205636-0.00021361943800002337j)
(0.00033568768412806094+9.155118459602818e-05j)
(-0.0003051706007681787+0.00012206824612803757j)
(-0.0002746535465121269-0.00024413649225607514j)
(0.00015258530038408935-3.0517061532009393e-05j)
(-3.0517061532009393e-05-0.00024413649225607514j)
(0.00018310236919205636-6.1034123064018786e-05j)
(-0.00033568768412806094-6.1034123064018786e-05j)
(3.0517061532009393e-05+0.00018310236919205636j)
-3.0517061532009393e-05j
(3.0517061532009393e-05-3.0517061532009393e-05j)
(-9.155118459602818e-05+0.0002746535465121269j)
(3.0517061532009393e-05-0.00015258530038408935j)
(-6.1034123064018786e-05-0.00012206824612803757j)
(-0.0003967217926401645+3.0517061532009393e-05j)
(-0.00015258530038408935-0.00015258530038408935j)
(-6.1034123064018786e-05-0.0003967217926401645j)
(-3.0517061532009393e-05-0.00018310236919205636j)
(0.00012206824612803757+3.0517061532009393e-05j)
(3.0517061532009393e-05-0.0002746535465121269j)
(9.155118459602818e-05-6.1034123064018786e-05j)
(-9.155118459602818e-05-0.00021361943800002337j)
(-9.155118459602818e-05-0.00021361943800002337j)
(-3.0517061532009393e-05-0.00024413649225607514j)
(-3.0517061532009393e-05+3.0517061532009393e-05j)
(9.155118459602818e-05-0.00015258530038408935j)
(-0.00024413649225607514-0.00015258530038408935j)
(0.00021361943800002337-9.155118459602818e-05j)
(-0.00018310236919205636-6.1034123064018786e-05j)
(-9.155118459602818e-05-0.00021361943800002337j)
(6.1034123064018786e-05-9.155118459602818e-05j)
(-9.155118459602818e-05-0.0002746535465121269j)
(-0.0002746535465121269+3.0517061532009393e-05j)
(3.0517061532009393e-05+0j)
(0.00024413649225607514-3.0517061532009393e-05j)
(-0.00012206824612803757+0.00012206824612803757j)
(-0.00024413649225607514+0j)
(6.1034123064018786e-05-0.00015258530038408935j)
(-6.1034123064018786e-05-3.0517061532009393e-05j)
(0.00018310236919205636-9.155118459602818e-05j)
(9.155118459602818e-05-0.00012206824612803757j)
(-9.155118459602818e-05+0.00015258530038408935j)
0.00033568768412806094j
(3.0517061532009393e-05+0.00015258530038408935j)
(0.00015258530038408935-0.0002746535465121269j)
(0.0002746535465121269+0.00012206824612803757j)
(0.00024413649225607514+0.00015258530038408935j)
3.0517061532009393e-05j
(0.0002746535465121269-6.1034123064018786e-05j)
(-0.0002746535465121269+6.1034123064018786e-05j)
(-9.155118459602818e-05-6.1034123064018786e-05j)
(0.00015258530038408935+0.00012206824612803757j)
(3.0517061532009393e-05+0.00012206824612803757j)
(-6.1034123064018786e-05-0.00018310236919205636j)
(-9.155118459602818e-05-6.1034123064018786e-05j)
(0.00018310236919205636+0.00018310236919205636j)
(-9.155118459602818e-05-0.00012206824612803757j)
(-9.155118459602818e-05-0.0004577559302560985j)
(-9.155118459602818e-05-3.0517061532009393e-05j)
(-0.00018310236919205636-0.00018310236919205636j)
-3.0517061532009393e-05j
(3.0517061532009393e-05+0.00018310236919205636j)
(-0.0003967217926401645+9.155118459602818e-05j)
(-0.00015258530038408935+0.00015258530038408935j)
(3.0517061532009393e-05-9.155118459602818e-05j)
(-0.00021361943800002337-0.00024413649225607514j)
(9.155118459602818e-05-0.00015258530038408935j)
(9.155118459602818e-05+0.00018310236919205636j)
(-0.0002746535465121269+9.155118459602818e-05j)
(-0.00012206824612803757+6.1034123064018786e-05j)
(0.00015258530038408935+0.00015258530038408935j)
(9.155118459602818e-05-6.1034123064018786e-05j)
0.00024413649225607514j
(9.155118459602818e-05-0.00012206824612803757j)
(0.0003051706007681787-9.155118459602818e-05j)
(6.1034123064018786e-05+0j)
(-0.00021361943800002337-0.0003662047383841127j)
(-0.00012206824612803757-0.00033568768412806094j)
(-6.1034123064018786e-05-6.1034123064018786e-05j)
-3.0517061532009393e-05j
(0.00018310236919205636+9.155118459602818e-05j)
0.00015258530038408935j
-0.00015258530038408935j
(-9.155118459602818e-05-0.00018310236919205636j)
6.1034123064018786e-05j
(-0.00015258530038408935-3.0517061532009393e-05j)
9.155118459602818e-05j
(-9.155118459602818e-05-0.00015258530038408935j)
(3.0517061532009393e-05+6.1034123064018786e-05j)
(0.00021361943800002337+0.00024413649225607514j)
(0.00012206824612803757-0.0002746535465121269j)
(-0.00018310236919205636+0j)
(3.0517061532009393e-05+0.00012206824612803757j)
(0.00024413649225607514-0.00018310236919205636j)
(-0.0004882729845121503+0.00021361943800002337j)
(-9.155118459602818e-05+0.00015258530038408935j)
(-0.00012206824612803757+0.0002746535465121269j)
(-0.00024413649225607514-0.0003051706007681787j)
(6.1034123064018786e-05+6.1034123064018786e-05j)
(-9.155118459602818e-05-0.00012206824612803757j)
(-3.0517061532009393e-05-0.00021361943800002337j)
(-9.155118459602818e-05-0.00024413649225607514j)
(-0.00021361943800002337+0.00015258530038408935j)
6.1034123064018786e-05j
(0.0003967217926401645+0j)
(0.0003051706007681787-0.00018310236919205636j)
(0.00033568768412806094-6.1034123064018786e-05j)
(-0.00015258530038408935-6.1034123064018786e-05j)
(0.00012206824612803757-0.0003967217926401645j)
(6.1034123064018786e-05+0.00042723887600004673j)
(-0.00012206824612803757-3.0517061532009393e-05j)
(3.0517061532009393e-05+0.00015258530038408935j)
(-0.00024413649225607514-0.0003967217926401645j)
(-3.0517061532009393e-05-0.0005798241472803056j)
(3.0517061532009393e-05-0.00018310236919205636j)
(-0.0003051706007681787-0.0002746535465121269j)
(-0.00015258530038408935+3.0517061532009393e-05j)
(9.155118459602818e-05-0.00015258530038408935j)
-0.00021361943800002337j
(6.1034123064018786e-05-0.00024413649225607514j)
-0.0003051706007681787j
(0.00018310236919205636-0.00033568768412806094j)
(0.00018310236919205636+9.155118459602818e-05j)
(-0.0002746535465121269-0.0003051706007681787j)
(-0.0002746535465121269-6.1034123064018786e-05j)
(3.0517061532009393e-05+3.0517061532009393e-05j)
(0.00015258530038408935-3.0517061532009393e-05j)
(-0.0002746535465121269-9.155118459602818e-05j)
-0.0003051706007681787j
(0.00012206824612803757-0.00012206824612803757j)
(-3.0517061532009393e-05+0.00018310236919205636j)
(0.00015258530038408935+6.1034123064018786e-05j)
(0.00012206824612803757+6.1034123064018786e-05j)
(0.00015258530038408935-6.1034123064018786e-05j)
(-0.00012206824612803757+3.0517061532009393e-05j)
(0.00015258530038408935+6.1034123064018786e-05j)
(6.1034123064018786e-05-0.0003662047383841127j)
(-6.1034123064018786e-05-0.00018310236919205636j)
(-0.00018310236919205636+6.1034123064018786e-05j)
(-3.0517061532009393e-05+0.00012206824612803757j)
(0.0005187900387682021+0.00021361943800002337j)
(-0.00012206824612803757+0.00033568768412806094j)
(-6.1034123064018786e-05+9.155118459602818e-05j)
(-6.1034123064018786e-05+0.00015258530038408935j)
(-0.0005798241472803056-9.155118459602818e-05j)
(-0.0003051706007681787-0.00015258530038408935j)
(-9.155118459602818e-05-0.00015258530038408935j)
(3.0517061532009393e-05-0.00042723887600004673j)
6.1034123064018786e-05j
(-0.0002746535465121269-0.00042723887600004673j)
(-0.00024413649225607514-0.00012206824612803757j)
(0.0002746535465121269+0.00021361943800002337j)
(0.00012206824612803757+0.00015258530038408935j)
(0.00021361943800002337+0.00021361943800002337j)
(-0.00021361943800002337-0.00018310236919205636j)
(-0.0004882729845121503+0.0002746535465121269j)
(0.00024413649225607514-0.00015258530038408935j)
(0.00021361943800002337+0.0003662047383841127j)
(-0.00021361943800002337-0.00015258530038408935j)
(0.00021361943800002337+0.00033568768412806094j)
(-0.00018310236919205636-0.00033568768412806094j)
(0.0004882729845121503+0.00021361943800002337j)
(0.00033568768412806094+3.0517061532009393e-05j)
(0.00012206824612803757-0.0006713753682561219j)
(-0.00021361943800002337+6.1034123064018786e-05j)
(0.00021361943800002337-0.00024413649225607514j)
(0.00012206824612803757-6.1034123064018786e-05j)
(0.00018310236919205636+0.00024413649225607514j)
(0.0002746535465121269+9.155118459602818e-05j)
(0.00012206824612803757+0.00018310236919205636j)
(-0.00015258530038408935+0.00042723887600004673j)
(0.00018310236919205636+0.00018310236919205636j)
(9.155118459602818e-05+3.0517061532009393e-05j)
(0.00018310236919205636-6.1034123064018786e-05j)
(0.0002746535465121269-0.00042723887600004673j)
(-0.00018310236919205636-0.00033568768412806094j)
(-0.00015258530038408935-0.00021361943800002337j)
(0.00024413649225607514-0.00024413649225607514j)
(0.00021361943800002337+0.00021361943800002337j)
(-6.1034123064018786e-05-0.00021361943800002337j)
(-0.0003662047383841127-3.0517061532009393e-05j)
(0.00012206824612803757-3.0517061532009393e-05j)
(-0.00018310236919205636+0.00021361943800002337j)
(0.00015258530038408935+9.155118459602818e-05j)
(0.0002746535465121269-0.00012206824612803757j)
(-9.155118459602818e-05-6.1034123064018786e-05j)
(0.00012206824612803757+3.0517061532009393e-05j)
(-9.155118459602818e-05-0.0002746535465121269j)
(-0.00012206824612803757-0.0002746535465121269j)
(-0.0003051706007681787-0.0003051706007681787j)
(-9.155118459602818e-05-0.00015258530038408935j)
(-0.00024413649225607514+0j)
(6.1034123064018786e-05-0.00018310236919205636j)
(0.00024413649225607514+0.0004577559302560985j)
(-0.00015258530038408935-0.00015258530038408935j)
(0.0002746535465121269-0.00012206824612803757j)
(0.00015258530038408935+0j)
(-0.0003967217926401645-0.00018310236919205636j)
(0.00012206824612803757-0.00012206824612803757j)
(6.1034123064018786e-05-0.00012206824612803757j)
(-0.00021361943800002337-0.00033568768412806094j)
(0.0004882729845121503+0.00024413649225607514j)
(3.0517061532009393e-05+0.00018310236919205636j)
(0.0003051706007681787+0.00024413649225607514j)
(-0.0003967217926401645-9.155118459602818e-05j)
(-0.00021361943800002337+3.0517061532009393e-05j)
(0.0003662047383841127-0.00015258530038408935j)
(6.1034123064018786e-05+0.00012206824612803757j)
(-0.00015258530038408935-0.0004577559302560985j)
(-6.1034123064018786e-05+9.155118459602818e-05j)
(3.0517061532009393e-05-6.1034123064018786e-05j)
(-0.00024413649225607514-0.00018310236919205636j)
(-3.0517061532009393e-05-3.0517061532009393e-05j)
(9.155118459602818e-05+0.00012206824612803757j)
(-6.1034123064018786e-05-6.1034123064018786e-05j)
(-0.0003662047383841127-0.00015258530038408935j)
(-0.00024413649225607514-0.0006103412015363574j)
(0.00024413649225607514-0.00021361943800002337j)
(-0.00012206824612803757-6.1034123064018786e-05j)
(-0.00015258530038408935-0.00018310236919205636j)
(0.00033568768412806094+9.155118459602818e-05j)
(-0.0004577559302560985+0.00024413649225607514j)
(0.00012206824612803757-0.00033568768412806094j)
(0.00021361943800002337-0.00012206824612803757j)
(0.00015258530038408935-0.0003967217926401645j)
(6.1034123064018786e-05-0.00024413649225607514j)
(0.00015258530038408935-3.0517061532009393e-05j)
(3.0517061532009393e-05+0.00021361943800002337j)
(-0.00033568768412806094-3.0517061532009393e-05j)
(-3.0517061532009393e-05-0.0003051706007681787j)
(-0.00033568768412806094-0.0003051706007681787j)
(0.0006408583140000701-6.1034123064018786e-05j)
(-3.0517061532009393e-05-0.0003662047383841127j)
(0.00018310236919205636-0.0002746535465121269j)
(-0.00015258530038408935-0.00018310236919205636j)
(-3.0517061532009393e-05+0.00015258530038408935j)
(0.0002746535465121269-3.0517061532009393e-05j)
(-6.1034123064018786e-05-3.0517061532009393e-05j)
(0.00015258530038408935-0.00021361943800002337j)
(-9.155118459602818e-05-0.0002746535465121269j)
(-0.0006408583140000701+0.00024413649225607514j)
(9.155118459602818e-05-9.155118459602818e-05j)
(3.0517061532009393e-05+3.0517061532009393e-05j)
(-9.155118459602818e-05+0.00024413649225607514j)
(0.0002746535465121269+0.0004882729845121503j)
(-0.00021361943800002337-0.00012206824612803757j)
(0.0004577559302560985+0j)
(-0.00018310236919205636+0.0002746535465121269j)
(-0.0002746535465121269+6.1034123064018786e-05j)
(-0.0003051706007681787+0j)
(-0.00042723887600004673-0.0005187900387682021j)
(-0.00018310236919205636-6.1034123064018786e-05j)
(-0.0002746535465121269-6.1034123064018786e-05j)
(0.0003662047383841127-0.00018310236919205636j)
(0.0005187900387682021-0.00012206824612803757j)
(0.00024413649225607514-0.0007018924225121737j)
(0.0004882729845121503+0.00021361943800002337j)
(-0.00012206824612803757+3.0517061532009393e-05j)
(0.00033568768412806094-0.00015258530038408935j)
(0.0004882729845121503-0.00012206824612803757j)
(3.0517061532009393e-05-9.155118459602818e-05j)
(-0.00018310236919205636+6.1034123064018786e-05j)
-9.155118459602818e-05j
(-0.00033568768412806094+9.155118459602818e-05j)
(0.00024413649225607514+0.0002746535465121269j)
(0.00018310236919205636-6.1034123064018786e-05j)
(-0.0002746535465121269+9.155118459602818e-05j)
(-0.00012206824612803757+9.155118459602818e-05j)
(9.155118459602818e-05-0.00018310236919205636j)
(-0.0003051706007681787-0.0003662047383841127j)
(-0.00012206824612803757-9.155118459602818e-05j)
(0.0004577559302560985-0.0003662047383841127j)
(-0.0004882729845121503+0.00021361943800002337j)
(-9.155118459602818e-05+6.1034123064018786e-05j)
(-0.00018310236919205636-0.0003967217926401645j)
(9.155118459602818e-05-3.0517061532009393e-05j)
(-0.0005798241472803056-0.00018310236919205636j)
(3.0517061532009393e-05+0.00012206824612803757j)
(0.0003967217926401645-0.0003967217926401645j)
(-0.00021361943800002337-0.00012206824612803757j)
(0.00033568768412806094+3.0517061532009393e-05j)
(0.00021361943800002337+3.0517061532009393e-05j)
(-0.00018310236919205636+0.0005493070930242538j)
(-0.00012206824612803757-6.1034123064018786e-05j)
(9.155118459602818e-05-0.00012206824612803757j)
(-0.0003662047383841127-0.00024413649225607514j)
0.00012206824612803757j
(3.0517061532009393e-05-0.00021361943800002337j)
(-0.00024413649225607514+0.00012206824612803757j)
(-0.00012206824612803757-0.00033568768412806094j)
(-0.00024413649225607514-0.00012206824612803757j)
(-9.155118459602818e-05+3.0517061532009393e-05j)
(0.0002746535465121269+0.00033568768412806094j)
(-0.0003967217926401645-0.0002746535465121269j)
(9.155118459602818e-05-0.0003967217926401645j)
(9.155118459602818e-05-0.0004577559302560985j)
(-0.00024413649225607514-6.1034123064018786e-05j)
(-0.00012206824612803757-6.1034123064018786e-05j)
(-0.00021361943800002337+0j)
(-0.00018310236919205636+0.00024413649225607514j)
(-3.0517061532009393e-05-0.00021361943800002337j)
(-3.0517061532009393e-05+0.0003051706007681787j)
(-9.155118459602818e-05+0.0003967217926401645j)
(-3.0517061532009393e-05+0j)
-0.00018310236919205636j
(-0.00021361943800002337-0.0005187900387682021j)
(0.00012206824612803757+0j)
(0.00015258530038408935+0.00012206824612803757j)
(-0.00015258530038408935+0.00018310236919205636j)
(0.00015258530038408935-0.00015258530038408935j)
(-0.00015258530038408935+3.0517061532009393e-05j)
(6.1034123064018786e-05+0.00024413649225607514j)
0.00021361943800002337j
(6.1034123064018786e-05+6.1034123064018786e-05j)
(-6.1034123064018786e-05-6.1034123064018786e-05j)
(-0.00018310236919205636+6.1034123064018786e-05j)
(6.1034123064018786e-05-0.00018310236919205636j)
(-0.00021361943800002337+3.0517061532009393e-05j)
(-0.0003967217926401645-9.155118459602818e-05j)
(-9.155118459602818e-05+0j)
(-0.00024413649225607514-0.00012206824612803757j)
(-0.0003662047383841127+0.0003662047383841127j)
(-0.0007018924225121737+0.00018310236919205636j)
(0.00021361943800002337+3.0517061532009393e-05j)
(0.0002746535465121269-0.0004577559302560985j)
(-0.00018310236919205636+9.155118459602818e-05j)
(0.0002746535465121269+0.00033568768412806094j)
(-0.00018310236919205636+0.0003051706007681787j)
(-6.1034123064018786e-05-3.0517061532009393e-05j)
(0.0003051706007681787+3.0517061532009393e-05j)
(9.155118459602818e-05-0.0003051706007681787j)
-0.0003662047383841127j
(-6.1034123064018786e-05+3.0517061532009393e-05j)
(-0.0002746535465121269-0.0002746535465121269j)
(-0.0003967217926401645+9.155118459602818e-05j)
(0.00042723887600004673+0j)
(0.0004577559302560985-6.1034123064018786e-05j)
3.0517061532009393e-05j
(-0.00018310236919205636+0.0005187900387682021j)
(-0.00015258530038408935-0.00021361943800002337j)
(-6.1034123064018786e-05-0.0003967217926401645j)
(-0.00033568768412806094+0.0002746535465121269j)
(-0.0003967217926401645-0.00024413649225607514j)
(0.00015258530038408935-0.0002746535465121269j)
(-0.00015258530038408935-6.1034123064018786e-05j)
(-0.00012206824612803757+0.0002746535465121269j)
-0.00018310236919205636j
(-3.0517061532009393e-05-3.0517061532009393e-05j)
(0.0005187900387682021-0.0004882729845121503j)
(3.0517061532009393e-05-6.1034123064018786e-05j)
(-0.0003662047383841127-0.00018310236919205636j)
(0.00012206824612803757+0.00021361943800002337j)
(-3.0517061532009393e-05+0.0003051706007681787j)
(6.1034123064018786e-05+0.00015258530038408935j)
(-6.1034123064018786e-05-3.0517061532009393e-05j)
(-0.00021361943800002337+0.0004577559302560985j)
-9.155118459602818e-05j
(0.00018310236919205636-0.00015258530038408935j)
(6.1034123064018786e-05+0.00018310236919205636j)
-0.00024413649225607514j
(0.00012206824612803757+0j)
(0.00015258530038408935+0.00018310236919205636j)
(0.00012206824612803757-0.00021361943800002337j)
(-0.00024413649225607514-3.0517061532009393e-05j)
(0.00024413649225607514+0.00015258530038408935j)
0.00033568768412806094j
(-0.0002746535465121269-3.0517061532009393e-05j)
(0.0003051706007681787+0.00015258530038408935j)
(-0.00024413649225607514-0.00024413649225607514j)
(-0.00012206824612803757+0.00024413649225607514j)
(-0.00033568768412806094-0.00024413649225607514j)
(-9.155118459602818e-05+9.155118459602818e-05j)
(0.0003662047383841127-9.155118459602818e-05j)
(-0.0003051706007681787-3.0517061532009393e-05j)
(-0.00021361943800002337-0.00012206824612803757j)
(-0.00015258530038408935-0.0005187900387682021j)
(-0.00015258530038408935+3.0517061532009393e-05j)
(-0.00024413649225607514-3.0517061532009393e-05j)
(-0.0002746535465121269+0.00024413649225607514j)
(-6.1034123064018786e-05-0.00015258530038408935j)
3.0517061532009393e-05j
(-0.0004882729845121503+0.00018310236919205636j)
(-0.00024413649225607514-0.0002746535465121269j)
(0.00018310236919205636-0.00018310236919205636j)
(0.0003051706007681787+9.155118459602818e-05j)
(-0.00024413649225607514-0.00042723887600004673j)
(-9.155118459602818e-05-0.00012206824612803757j)
(0.0002746535465121269-0.00033568768412806094j)
(6.1034123064018786e-05-0.0006408583140000701j)
(0.0003967217926401645-9.155118459602818e-05j)
(0.0005187900387682021+0.0002746535465121269j)
(0.00012206824612803757+0.0003662047383841127j)
(0.0004577559302560985+3.0517061532009393e-05j)
(-0.00018310236919205636-0.0003967217926401645j)
(-3.0517061532009393e-05+3.0517061532009393e-05j)
(3.0517061532009393e-05+0.0002746535465121269j)
(-0.0003662047383841127+0.00024413649225607514j)
(0.0004577559302560985-6.1034123064018786e-05j)
(9.155118459602818e-05-0.00021361943800002337j)
(-3.0517061532009393e-05-0.00024413649225607514j)
(-0.00015258530038408935+0.00018310236919205636j)
(-9.155118459602818e-05+0j)
(0.00015258530038408935-6.1034123064018786e-05j)
(-0.0006103412015363574+0.00015258530038408935j)
(-9.155118459602818e-05+0.0002746535465121269j)
(0.00033568768412806094-0.0003051706007681787j)
(-9.155118459602818e-05+6.1034123064018786e-05j)
(-3.0517061532009393e-05+0.00024413649225607514j)
(-0.00012206824612803757+3.0517061532009393e-05j)
(-9.155118459602818e-05+9.155118459602818e-05j)
(-0.00018310236919205636-0.00024413649225607514j)
(-0.00033568768412806094-0.0003662047383841127j)
(0.00021361943800002337+9.155118459602818e-05j)
(-0.00033568768412806094-0.00015258530038408935j)
-0.00021361943800002337j
9.155118459602818e-05j
(3.0517061532009393e-05-0.00021361943800002337j)
(-3.0517061532009393e-05+9.155118459602818e-05j)
(-0.00015258530038408935-0.0002746535465121269j)
(-0.00024413649225607514-0.00018310236919205636j)
(-0.00018310236919205636-0.0005187900387682021j)
(-0.00012206824612803757-0.00012206824612803757j)
(9.155118459602818e-05+3.0517061532009393e-05j)
(3.0517061532009393e-05-0.00018310236919205636j)
(-3.0517061532009393e-05-0.0004577559302560985j)
(3.0517061532009393e-05+0.0002746535465121269j)
(0.0005187900387682021+9.155118459602818e-05j)
(-0.00033568768412806094-3.0517061532009393e-05j)
(-0.0004577559302560985+9.155118459602818e-05j)
(-0.0003967217926401645-0.00015258530038408935j)
(-0.00033568768412806094-0.00021361943800002337j)
(-0.00021361943800002337+6.1034123064018786e-05j)
(0.0006103412015363574+0.00042723887600004673j)
(-6.1034123064018786e-05+0.0003662047383841127j)
(6.1034123064018786e-05-9.155118459602818e-05j)
(6.1034123064018786e-05+9.155118459602818e-05j)
(0.0004882729845121503+0.00042723887600004673j)
(0.00024413649225607514-0.00012206824612803757j)
(-0.0002746535465121269-0.00012206824612803757j)
(0.0002746535465121269-0.0005187900387682021j)
(-0.00024413649225607514-0.00042723887600004673j)
(-0.00042723887600004673-0.0003967217926401645j)
(0.00042723887600004673+0.00021361943800002337j)
(-9.155118459602818e-05-0.0002746535465121269j)
(0.0002746535465121269+3.0517061532009393e-05j)
(0.00024413649225607514+3.0517061532009393e-05j)
(-0.00012206824612803757-0.0002746535465121269j)
(-0.00015258530038408935-0.00012206824612803757j)
(-3.0517061532009393e-05-0.0003967217926401645j)
(3.0517061532009393e-05-0.00018310236919205636j)
(-0.00015258530038408935-0.0003662047383841127j)
(-0.0003967217926401645-6.1034123064018786e-05j)
(-0.0003967217926401645-0.0003662047383841127j)
(9.155118459602818e-05-0.00018310236919205636j)
(-0.0003051706007681787+0.00012206824612803757j)
(0.00015258530038408935-0.00024413649225607514j)
(-0.00021361943800002337-0.00015258530038408935j)
(-9.155118459602818e-05+3.0517061532009393e-05j)
(9.155118459602818e-05+9.155118459602818e-05j)
(-0.00015258530038408935+0.00015258530038408935j)
(9.155118459602818e-05+3.0517061532009393e-05j)
(-0.0003967217926401645+9.155118459602818e-05j)
(3.0517061532009393e-05+6.1034123064018786e-05j)
(-3.0517061532009393e-05-0.0003051706007681787j)
(-6.1034123064018786e-05+0.00018310236919205636j)
(0.00024413649225607514-0.00042723887600004673j)
(3.0517061532009393e-05-6.1034123064018786e-05j)
(0.00012206824612803757-0.00033568768412806094j)
(0.00012206824612803757+0.0004577559302560985j)
(-0.0002746535465121269+6.1034123064018786e-05j)
(0.00024413649225607514+0j)
(-0.0004882729845121503-0.0003051706007681787j)
(-6.1034123064018786e-05-0.0003051706007681787j)
6.1034123064018786e-05j
(-0.00015258530038408935-0.00042723887600004673j)
(3.0517061532009393e-05+9.155118459602818e-05j)
(6.1034123064018786e-05-0.00021361943800002337j)
(-0.00021361943800002337+0.00021361943800002337j)
(-0.00024413649225607514+0.0002746535465121269j)
(3.0517061532009393e-05+0.0003051706007681787j)
(-6.1034123064018786e-05+0j)
(-3.0517061532009393e-05+0.00012206824612803757j)
(6.1034123064018786e-05-0.00024413649225607514j)
-0.00033568768412806094j
(0.00021361943800002337+0.00015258530038408935j)
(-0.00015258530038408935+0.0003662047383841127j)
(-3.0517061532009393e-05+0.00012206824612803757j)
(-9.155118459602818e-05+0.00012206824612803757j)
0.00018310236919205636j
(3.0517061532009393e-05-0.0002746535465121269j)
(-0.00012206824612803757+9.155118459602818e-05j)
(-0.00018310236919205636+0j)
(-0.00021361943800002337-0.00018310236919205636j)
(9.155118459602818e-05-9.155118459602818e-05j)
(-0.0004882729845121503+3.0517061532009393e-05j)
(0.0003967217926401645-9.155118459602818e-05j)
(0.00015258530038408935-0.0002746535465121269j)
(-9.155118459602818e-05+3.0517061532009393e-05j)
(0.0003967217926401645+3.0517061532009393e-05j)
(-9.155118459602818e-05+6.1034123064018786e-05j)
(-0.00024413649225607514+3.0517061532009393e-05j)
(3.0517061532009393e-05+0.00015258530038408935j)
(-0.00042723887600004673+0.00033568768412806094j)
(-0.0003967217926401645-3.0517061532009393e-05j)
(3.0517061532009393e-05+6.1034123064018786e-05j)
(-0.00015258530038408935+0.00015258530038408935j)
(3.0517061532009393e-05+0.00024413649225607514j)
(3.0517061532009393e-05-9.155118459602818e-05j)
(6.1034123064018786e-05-6.1034123064018786e-05j)
(-0.0003662047383841127-0.00015258530038408935j)
(9.155118459602818e-05-6.1034123064018786e-05j)
-3.0517061532009393e-05j
(-6.1034123064018786e-05+0.0002746535465121269j)
(3.0517061532009393e-05+0.0003967217926401645j)
(3.0517061532009393e-05+9.155118459602818e-05j)
(6.1034123064018786e-05+9.155118459602818e-05j)
(-0.00021361943800002337+3.0517061532009393e-05j)
(0.00012206824612803757-6.1034123064018786e-05j)
3.0517061532009393e-05j
(0.00021361943800002337+0.00015258530038408935j)
(-0.0003051706007681787+0.00012206824612803757j)
(0.00015258530038408935-0.00021361943800002337j)
(6.1034123064018786e-05+6.1034123064018786e-05j)
(-0.00015258530038408935-0.00015258530038408935j)
(0.00024413649225607514+0j)
(-6.1034123064018786e-05+0j)
(-0.00012206824612803757+3.0517061532009393e-05j)
(6.1034123064018786e-05+0.00021361943800002337j)
(-0.00015258530038408935+3.0517061532009393e-05j)
(0.00015258530038408935+6.1034123064018786e-05j)
(0.0003967217926401645+0j)
(0.00015258530038408935+0j)
(0.00024413649225607514-9.155118459602818e-05j)
(-3.0517061532009393e-05-6.1034123064018786e-05j)
(0.0003662047383841127-6.1034123064018786e-05j)
(0.00015258530038408935+0.00018310236919205636j)
(-0.00015258530038408935-0.00012206824612803757j)
(-9.155118459602818e-05-0.00021361943800002337j)
(-0.00021361943800002337+0j)
(3.0517061532009393e-05-3.0517061532009393e-05j)
-3.0517061532009393e-05j
-0.00015258530038408935j
(3.0517061532009393e-05-9.155118459602818e-05j)
(-6.1034123064018786e-05+6.1034123064018786e-05j)
(0.0003051706007681787-6.1034123064018786e-05j)
(-9.155118459602818e-05+0.00021361943800002337j)
(0.00015258530038408935+6.1034123064018786e-05j)
(-0.00018310236919205636-0.00018310236919205636j)
(-0.00018310236919205636-0.00018310236919205636j)
(0.00012206824612803757+9.155118459602818e-05j)
(0.0002746535465121269+3.0517061532009393e-05j)
(0.00018310236919205636-0.00018310236919205636j)
(-6.1034123064018786e-05-3.0517061532009393e-05j)
(3.0517061532009393e-05+0.00015258530038408935j)
(9.155118459602818e-05+3.0517061532009393e-05j)
(0.00021361943800002337-0.0003051706007681787j)
(9.155118459602818e-05+9.155118459602818e-05j)
(-0.0003051706007681787+0.00015258530038408935j)
(3.0517061532009393e-05-0.0003051706007681787j)
(9.155118459602818e-05-0.00015258530038408935j)
(0.00015258530038408935-9.155118459602818e-05j)
(-0.00015258530038408935-6.1034123064018786e-05j)
(-0.00018310236919205636-3.0517061532009393e-05j)
(-0.00024413649225607514+0.0003662047383841127j)
(-0.0002746535465121269-6.1034123064018786e-05j)
(-6.1034123064018786e-05-0.00024413649225607514j)
(0.00021361943800002337+0j)
(0.00012206824612803757-3.0517061532009393e-05j)
(-0.00018310236919205636+3.0517061532009393e-05j)
(-3.0517061532009393e-05-6.1034123064018786e-05j)
(-6.1034123064018786e-05+0.00015258530038408935j)
(-0.00018310236919205636+3.0517061532009393e-05j)
(-9.155118459602818e-05+0.00012206824612803757j)
(0.00012206824612803757+0.00021361943800002337j)
(-0.00024413649225607514-0.00015258530038408935j)
(9.155118459602818e-05-6.1034123064018786e-05j)
(3.0517061532009393e-05-0.00012206824612803757j)
(0.00024413649225607514-9.155118459602818e-05j)
(-9.155118459602818e-05+0.00018310236919205636j)
-9.155118459602818e-05j
(-3.0517061532009393e-05+0.00015258530038408935j)
9.155118459602818e-05j
(-0.0002746535465121269+0.00012206824612803757j)
(-0.00018310236919205636+0j)
(-9.155118459602818e-05-0.00015258530038408935j)
(6.1034123064018786e-05-9.155118459602818e-05j)
(-0.00015258530038408935-6.1034123064018786e-05j)
(0.00021361943800002337-0.0003051706007681787j)
(-9.155118459602818e-05-3.0517061532009393e-05j)
(-0.00012206824612803757-6.1034123064018786e-05j)
(-9.155118459602818e-05+6.1034123064018786e-05j)
(-0.00015258530038408935-3.0517061532009393e-05j)
(3.0517061532009393e-05-0.00012206824612803757j)
(-0.0002746535465121269-3.0517061532009393e-05j)
(6.1034123064018786e-05+0.00012206824612803757j)
(9.155118459602818e-05+6.1034123064018786e-05j)
(0.00021361943800002337-9.155118459602818e-05j)
(-0.00012206824612803757-0.00021361943800002337j)
(-0.00021361943800002337-3.0517061532009393e-05j)
(-9.155118459602818e-05+9.155118459602818e-05j)
(-9.155118459602818e-05+0.00015258530038408935j)
(-0.00021361943800002337+0.00012206824612803757j)
(-0.00012206824612803757+6.1034123064018786e-05j)
(0.00015258530038408935-6.1034123064018786e-05j)
(-0.00012206824612803757-0.00018310236919205636j)
(-9.155118459602818e-05-0.00021361943800002337j)
(0.00018310236919205636+0.00012206824612803757j)
(6.1034123064018786e-05-6.1034123064018786e-05j)
(9.155118459602818e-05-0.00018310236919205636j)
(-0.00024413649225607514+6.1034123064018786e-05j)
(0.00015258530038408935-0.0004577559302560985j)
(0.00024413649225607514-9.155118459602818e-05j)
(-0.00015258530038408935-6.1034123064018786e-05j)
(-0.00018310236919205636-0.0003051706007681787j)
(0.00012206824612803757+0.00018310236919205636j)
(0.00015258530038408935+6.1034123064018786e-05j)
(3.0517061532009393e-05-0.0002746535465121269j)
(3.0517061532009393e-05+0.00024413649225607514j)
(0.00021361943800002337-0.00012206824612803757j)
(9.155118459602818e-05-9.155118459602818e-05j)
(0.00018310236919205636-0.00012206824612803757j)
-0.00033568768412806094j
(-3.0517061532009393e-05+9.155118459602818e-05j)
(6.1034123064018786e-05+0.00021361943800002337j)
(-0.00024413649225607514+6.1034123064018786e-05j)
(-0.0004577559302560985-6.1034123064018786e-05j)
(-0.0002746535465121269-6.1034123064018786e-05j)
(-0.00012206824612803757+0.0002746535465121269j)
(-0.00024413649225607514-3.0517061532009393e-05j)
(-0.00018310236919205636+0.00024413649225607514j)
(3.0517061532009393e-05-9.155118459602818e-05j)
(-6.1034123064018786e-05-0.00018310236919205636j)
(9.155118459602818e-05+0.00015258530038408935j)
(3.0517061532009393e-05+0.00024413649225607514j)
(0.00024413649225607514+9.155118459602818e-05j)
(-0.00021361943800002337+0.00024413649225607514j)
(-0.00012206824612803757+0.00033568768412806094j)
(0.0003051706007681787-0.00015258530038408935j)
(3.0517061532009393e-05-0.00018310236919205636j)
(0.00021361943800002337+6.1034123064018786e-05j)
(-0.00012206824612803757+6.1034123064018786e-05j)
(-9.155118459602818e-05+9.155118459602818e-05j)
(9.155118459602818e-05+0.00018310236919205636j)
(-6.1034123064018786e-05-3.0517061532009393e-05j)
(-0.00018310236919205636+3.0517061532009393e-05j)
(0.00012206824612803757+3.0517061532009393e-05j)
(0.00015258530038408935+0j)
(-0.00015258530038408935-3.0517061532009393e-05j)
(-0.00033568768412806094-3.0517061532009393e-05j)
(-0.00033568768412806094+9.155118459602818e-05j)
(-3.0517061532009393e-05+9.155118459602818e-05j)
(-0.00024413649225607514+3.0517061532009393e-05j)
(-3.0517061532009393e-05-0.0005187900387682021j)
(-0.00015258530038408935+0.00015258530038408935j)
(0.00018310236919205636+0.00018310236919205636j)
(3.0517061532009393e-05+0.00015258530038408935j)
6.1034123064018786e-05j
(-0.00021361943800002337+3.0517061532009393e-05j)
(-0.00015258530038408935+6.1034123064018786e-05j)
(-0.00015258530038408935-9.155118459602818e-05j)
0j
(-0.0002746535465121269+9.155118459602818e-05j)
(-9.155118459602818e-05-3.0517061532009393e-05j)
(0.00015258530038408935-3.0517061532009393e-05j)
(-3.0517061532009393e-05+0.00012206824612803757j)
(9.155118459602818e-05+0j)
(0.00012206824612803757-0.00015258530038408935j)
(6.1034123064018786e-05-3.0517061532009393e-05j)
(-0.00012206824612803757+3.0517061532009393e-05j)
(-0.00021361943800002337-0.0003051706007681787j)
(-0.0003051706007681787+0.0002746535465121269j)
(0.00012206824612803757+0.00018310236919205636j)
(-9.155118459602818e-05+0.00018310236919205636j)
(-0.0002746535465121269+0j)
(-3.0517061532009393e-05+0.00015258530038408935j)
(-6.1034123064018786e-05-9.155118459602818e-05j)
(-0.00018310236919205636-0.00012206824612803757j)
(0.00012206824612803757-9.155118459602818e-05j)
(-0.00018310236919205636-0.00024413649225607514j)
(-6.1034123064018786e-05+9.155118459602818e-05j)
(-0.00012206824612803757-6.1034123064018786e-05j)
(-0.00033568768412806094-0.00015258530038408935j)
(-0.00018310236919205636-0.00012206824612803757j)
(-3.0517061532009393e-05+0.00018310236919205636j)
0.0002746535465121269j
(0.00015258530038408935-9.155118459602818e-05j)
(-0.00012206824612803757-0.00024413649225607514j)
(-0.0003051706007681787-6.1034123064018786e-05j)
(6.1034123064018786e-05-9.155118459602818e-05j)
(-0.00015258530038408935-3.0517061532009393e-05j)
(0.00015258530038408935+0j)
-6.1034123064018786e-05j
(-0.0003051706007681787+0.00012206824612803757j)
(0.00024413649225607514+0.00012206824612803757j)
(0.00015258530038408935-6.1034123064018786e-05j)
(0.0004882729845121503-6.1034123064018786e-05j)
(-3.0517061532009393e-05-0.00024413649225607514j)
(0.00018310236919205636+0j)
(9.155118459602818e-05+6.1034123064018786e-05j)
(9.155118459602818e-05+9.155118459602818e-05j)
(0.00021361943800002337-6.1034123064018786e-05j)
(-6.1034123064018786e-05-6.1034123064018786e-05j)
-0.00024413649225607514j
(-3.0517061532009393e-05+9.155118459602818e-05j)
(-0.00012206824612803757-0.00033568768412806094j)
(-0.00015258530038408935-0.00021361943800002337j)
(6.1034123064018786e-05-9.155118459602818e-05j)
(-6.1034123064018786e-05+0j)
(-9.155118459602818e-05-6.1034123064018786e-05j)
(-9.155118459602818e-05-0.00021361943800002337j)
(-0.00012206824612803757+3.0517061532009393e-05j)
(3.0517061532009393e-05-0.00018310236919205636j)
(0.00012206824612803757+9.155118459602818e-05j)
(-6.1034123064018786e-05-0.00012206824612803757j)
(-0.00018310236919205636-9.155118459602818e-05j)
-0.0003051706007681787j
(0.00021361943800002337+0.00012206824612803757j)
(9.155118459602818e-05-0.00018310236919205636j)
(-0.00021361943800002337-0.00015258530038408935j)
(-0.00015258530038408935-0.00015258530038408935j)
(-0.00015258530038408935-3.0517061532009393e-05j)
(-0.0003662047383841127+0.00012206824612803757j)
(0.00012206824612803757+0j)
(0.0003662047383841127-3.0517061532009393e-05j)
(-6.1034123064018786e-05+0.0003051706007681787j)
(6.1034123064018786e-05+0.00021361943800002337j)
(-6.1034123064018786e-05-9.155118459602818e-05j)
(3.0517061532009393e-05+3.0517061532009393e-05j)
(0.00021361943800002337-0.00018310236919205636j)
(9.155118459602818e-05+6.1034123064018786e-05j)
(-6.1034123064018786e-05-0.00012206824612803757j)
(-9.155118459602818e-05+0.00015258530038408935j)
(-6.1034123064018786e-05-0.00021361943800002337j)
(3.0517061532009393e-05-0.00033568768412806094j)
(0.0003051706007681787+0j)
(6.1034123064018786e-05+0.00033568768412806094j)
(-3.0517061532009393e-05-0.00012206824612803757j)
(9.155118459602818e-05-9.155118459602818e-05j)
(-0.00015258530038408935-0.0002746535465121269j)
(0.0003662047383841127+0.00012206824612803757j)
(9.155118459602818e-05+0.00012206824612803757j)
(-0.00018310236919205636+0.00042723887600004673j)
-0.0003967217926401645j
-3.0517061532009393e-05j
(3.0517061532009393e-05+0j)
(6.1034123064018786e-05-9.155118459602818e-05j)
(-0.00024413649225607514-6.1034123064018786e-05j)
(-0.00015258530038408935-0.00024413649225607514j)
(0.00012206824612803757+6.1034123064018786e-05j)
(-0.00024413649225607514+0j)
(-0.0002746535465121269-6.1034123064018786e-05j)
(-3.0517061532009393e-05+6.1034123064018786e-05j)
(-6.1034123064018786e-05-0.0005187900387682021j)
(3.0517061532009393e-05+0.00018310236919205636j)
(-9.155118459602818e-05-6.1034123064018786e-05j)
