0j
0j
0j
0j
0j
0j
0j
0j
0j
0j
0j
0j
0j
0j
0j
0j
0j
0j
0j
0j
0j
0j
0j
(3.0517061532009393e-05+0j)
-9.155118459602818e-05j
(-6.1034123064018786e-05+0.00012206824612803757j)
(0.00015258530038408935+0.00033568768412806094j)
(0.0005187900387682021+3.0517061532009393e-05j)
(0.00033568768412806094+0.00018310236919205636j)
(-6.1034123064018786e-05+0.0008849948062561452j)
(9.155118459602818e-05+0.00012206824612803757j)
(0.0002746535465121269+0.0007018924225121737j)
(6.1034123064018786e-05+0.00018310236919205636j)
(0.00015258530038408935+0.00042723887600004673j)
(-9.155118459602818e-05+0.0012511995155364275j)
(9.155118459602818e-05+0.00024413649225607514j)
(-6.1034123064018786e-05-0.0003051706007681787j)
(6.1034123064018786e-05-9.155118459602818e-05j)
(6.1034123064018786e-05+0.00024413649225607514j)
(0.00018310236919205636+0.00015258530038408935j)
(6.1034123064018786e-05+0.0007629265310242772j)
(-0.0005798241472803056+0.00024413649225607514j)
(0.00015258530038408935+0j)
(0.00033568768412806094+0.00024413649225607514j)
(-0.0002746535465121269+0.00024413649225607514j)
(9.155118459602818e-05-3.0517061532009393e-05j)
(-6.1034123064018786e-05+0.0005187900387682021j)
(-0.0003662047383841127+9.155118459602818e-05j)
0.0002746535465121269j
(0.0004882729845121503+0.0020446430426090956j)
(3.0517061532009393e-05-9.155118459602818e-05j)
(6.1034123064018786e-05+0.0004577559302560985j)
(0.0002746535465121269+0j)
(-3.0517061532009393e-05+0.0004882729845121503j)
(-0.00012206824612803757-0.00021361943800002337j)
(-3.0517061532009393e-05+0.0008849948062561452j)
(0.00033568768412806094+0.0006408583140000701j)
(0.0002746535465121269-0.00012206824612803757j)
(0.00024413649225607514+0.0005798241472803056j)
(3.0517061532009393e-05-3.0517061532009393e-05j)
(0.00024413649225607514+0.0007629265310242772j)
(9.155118459602818e-05+6.1034123064018786e-05j)
(0.00012206824612803757+0.00018310236919205636j)
(0.00018310236919205636+0j)
(-0.00015258530038408935-0.00012206824612803757j)
(0.00012206824612803757-0.00024413649225607514j)
(0.00042723887600004673+0.0011596482945606112j)
(0.00033568768412806094+0.0010986141860485077j)
(0.000915511860512197+0.0027465354651212692j)
(6.1034123064018786e-05+0.000915511860512197j)
(0.0003662047383841127+0.0003051706007681787j)
(0.0004577559302560985+0.00033568768412806094j)
(0.00024413649225607514+0.0007629265310242772j)
(0.00033568768412806094+0.0010986141860485077j)
(0.0002746535465121269+0.0005798241472803056j)
(0.00024413649225607514+0.0004577559302560985j)
(-0.00021361943800002337-0.0003051706007681787j)
(0.00012206824612803757+0.00033568768412806094j)
(0.0004577559302560985+0.0006103412015363574j)
(0.0003967217926401645+0.0008239606395363808j)
(0.00012206824612803757+0.0002746535465121269j)
(-9.155118459602818e-05+0.0005187900387682021j)
(0.0007324094767682254+0.0019530919380486012j)
(0.0005187900387682021+0.0007018924225121737j)
(6.1034123064018786e-05+0.0004577559302560985j)
(-0.00018310236919205636+0.00033568768412806094j)
(0.00033568768412806094+0.00018310236919205636j)
(9.155118459602818e-05+0j)
(0.0004577559302560985+0.000793443585280329j)
(0.00015258530038408935+0.001190165407024324j)
(-0.00012206824612803757+0.00033568768412806094j)
0.00018310236919205636j
(0.00015258530038408935+0.0010375800775364041j)
(0.0002746535465121269+9.155118459602818e-05j)
(0.00018310236919205636+0.00024413649225607514j)
(0.00015258530038408935+0.00021361943800002337j)
(0.0003051706007681787+0j)
(-0.00015258530038408935+0.0005798241472803056j)
(0.0003051706007681787+0.0004577559302560985j)
(-3.0517061532009393e-05+0.0005493070930242538j)
(-0.0002746535465121269+0.0008849948062561452j)
(3.0517061532009393e-05+0.00042723887600004673j)
0.0006408583140000701j
0.0004882729845121503j
(0.00033568768412806094+0.0004577559302560985j)
(0.00018310236919205636+0.0003967217926401645j)
(0.00021361943800002337+0.0003967217926401645j)
(-3.0517061532009393e-05+0.0003967217926401645j)
(0.00018310236919205636+6.1034123064018786e-05j)
(-0.00015258530038408935+0.00033568768412806094j)
(0.00015258530038408935+3.0517061532009393e-05j)
(0.0005187900387682021+0.0006408583140000701j)
(0.00012206824612803757+0.0007629265310242772j)
(0.0003051706007681787+0.0009460289147682488j)
(3.0517061532009393e-05+0.000793443585280329j)
(3.0517061532009393e-05+0.0002746535465121269j)
(0.00012206824612803757+0.00012206824612803757j)
(0.00021361943800002337-9.155118459602818e-05j)
(-3.0517061532009393e-05+0.0004882729845121503j)
(0.0005798241472803056+0.0014343018410727382j)
(3.0517061532009393e-05+0.00012206824612803757j)
(0.00033568768412806094+3.0517061532009393e-05j)
(0.00024413649225607514+0.0003051706007681787j)
(0.0002746535465121269+0.00024413649225607514j)
(0.00012206824612803757+0.00021361943800002337j)
(-0.00018310236919205636+0.0004577559302560985j)
(6.1034123064018786e-05+0.00033568768412806094j)
(-0.00018310236919205636-3.0517061532009393e-05j)
(0.00021361943800002337-0.00015258530038408935j)
(-0.0002746535465121269+0.0004882729845121503j)
(0.00018310236919205636+0.0004577559302560985j)
(0.00015258530038408935+0.0003967217926401645j)
(6.1034123064018786e-05+0.00015258530038408935j)
(0.00021361943800002337+0.0005187900387682021j)
(0.00012206824612803757+0.00033568768412806094j)
(0.0002746535465121269+0.0005187900387682021j)
(0.0002746535465121269+0.0005493070930242538j)
(0.00015258530038408935+0.0003051706007681787j)
(0.00021361943800002337+0.0008239606395363808j)
(0.0002746535465121269+6.1034123064018786e-05j)
(0.00018310236919205636+0.0002746535465121269j)
(0.00015258530038408935+0.00024413649225607514j)
(9.155118459602818e-05+0.0005798241472803056j)
(-0.00012206824612803757+0.0003967217926401645j)
(3.0517061532009393e-05+0.00021361943800002337j)
(-0.00018310236919205636+0.00018310236919205636j)
(-0.00012206824612803757+0.00018310236919205636j)
(-6.1034123064018786e-05+0.0010070630814880133j)
(0.00012206824612803757+0.001312233624048531j)
(-0.00024413649225607514+6.1034123064018786e-05j)
(3.0517061532009393e-05+9.155118459602818e-05j)
(-3.0517061532009393e-05-0.00015258530038408935j)
(-0.00012206824612803757+0.0006408583140000701j)
(-0.00042723887600004673+0.0003662047383841127j)
(6.1034123064018786e-05+0.0005493070930242538j)
(9.155118459602818e-05+0.0006408583140000701j)
(0.00012206824612803757+0.0003662047383841127j)
(0.00024413649225607514+0.0006408583140000701j)
(0.00018310236919205636+0.001831023721024394j)
(0.00012206824612803757-3.0517061532009393e-05j)
(6.1034123064018786e-05+0.0004577559302560985j)
(0.00015258530038408935+0.0008544777520000935j)
(-6.1034123064018786e-05+0.0003051706007681787j)
0.00021361943800002337j
0.0004882729845121503j
(0.00012206824612803757+0.0003967217926401645j)
(6.1034123064018786e-05+0.00024413649225607514j)
(0.0002746535465121269+0.0007324094767682254j)
(6.1034123064018786e-05+0.00033568768412806094j)
(0.00021361943800002337+0.0005493070930242538j)
(0.00021361943800002337+0.0004882729845121503j)
(0.0004577559302560985+0.0014648189535364509j)
(0.0003051706007681787+0.0009765459690243006j)
(0.0008544777520000935+0.0007629265310242772j)
(3.0517061532009393e-05+6.1034123064018786e-05j)
(0.00012206824612803757+0.0003662047383841127j)
(9.155118459602818e-05+0.0007629265310242772j)
(-0.00012206824612803757+6.1034123064018786e-05j)
(0.0003662047383841127+0.0005493070930242538j)
(9.155118459602818e-05+0.0003051706007681787j)
(0.0003051706007681787+0.000915511860512197j)
(-0.00015258530038408935+0.0006408583140000701j)
(-6.1034123064018786e-05+0.0004577559302560985j)
(0.0002746535465121269+0.0006408583140000701j)
(-9.155118459602818e-05-0.00012206824612803757j)
(0.0002746535465121269+0.0007324094767682254j)
(0.00033568768412806094+0.0008544777520000935j)
(-0.00018310236919205636-0.00033568768412806094j)
(9.155118459602818e-05+0.0009460289147682488j)
(0.00021361943800002337+0.00033568768412806094j)
(-6.1034123064018786e-05+0.00018310236919205636j)
(3.0517061532009393e-05+0.0006103412015363574j)
(-0.00018310236919205636+0.0006713753682561219j)
0.0006408583140000701j
(0.0002746535465121269+0.0007018924225121737j)
(0.0002746535465121269+0.0011291312985122204j)
(0.0008239606395363808+0.0022887797094881535j)
(0.0003662047383841127+0.0009765459690243006j)
(0.0002746535465121269+0.0003662047383841127j)
(0.0002746535465121269+0.0010986141860485077j)
(0.0004577559302560985+0.000915511860512197j)
(0.00024413649225607514+0.0010070630814880133j)
(0.0005493070930242538+0.0012817166280001402j)
(0.0002746535465121269+0.00012206824612803757j)
(0.0003967217926401645+0.0013427507365122437j)
(0.0005798241472803056+0.0010680971900001168j)
(6.1034123064018786e-05-0.00015258530038408935j)
(0.00033568768412806094+0.0008239606395363808j)
(0.00012206824612803757+0.0008544777520000935j)
(-0.00018310236919205636+0.00033568768412806094j)
(0.0002746535465121269+0.0003051706007681787j)
(-0.00012206824612803757-3.0517061532009393e-05j)
(0.0002746535465121269+0.0005493070930242538j)
(3.0517061532009393e-05-0.0003051706007681787j)
(9.155118459602818e-05+0.00015258530038408935j)
(0.0004577559302560985+0.0008239606395363808j)
0.00018310236919205636j
(0.00024413649225607514+0.0003051706007681787j)
(0.00024413649225607514+0.0009765459690243006j)
(-3.0517061532009393e-05+0.0003967217926401645j)
(0.0003051706007681787+0.0006408583140000701j)
(-3.0517061532009393e-05-9.155118459602818e-05j)
0.00042723887600004673j
(0.0003051706007681787+0.0005798241472803056j)
(0.0002746535465121269-6.1034123064018786e-05j)
(0.00024413649225607514-9.155118459602818e-05j)
(-3.0517061532009393e-05+0.0006103412015363574j)
(0.00021361943800002337+0.0003051706007681787j)
(-0.00021361943800002337+0.0004577559302560985j)
(0.00015258530038408935+3.0517061532009393e-05j)
(6.1034123064018786e-05+0.00012206824612803757j)
(-3.0517061532009393e-05+0.00018310236919205636j)
(3.0517061532009393e-05+0.0003967217926401645j)
(-0.0003051706007681787-6.1034123064018786e-05j)
(-6.1034123064018786e-05+0.0009460289147682488j)
(0.00012206824612803757+0.0008849948062561452j)
(-0.00012206824612803757+0.0003662047383841127j)
(-0.00012206824612803757+0.0003051706007681787j)
(-3.0517061532009393e-05+3.0517061532009393e-05j)
(0.00015258530038408935+0.00015258530038408935j)
(-3.0517061532009393e-05+0.00015258530038408935j)
(0.00012206824612803757+0.0007324094767682254j)
(3.0517061532009393e-05-3.0517061532009393e-05j)
(0.00012206824612803757-0.00021361943800002337j)
0.0004882729845121503j
(0.0002746535465121269+0.00021361943800002337j)
(-0.00021361943800002337+3.0517061532009393e-05j)
(0.00018310236919205636+0.0009765459690243006j)
(0.00021361943800002337+0.00042723887600004673j)
(0.00015258530038408935+0.00021361943800002337j)
(-0.00021361943800002337+0.00018310236919205636j)
(-0.00015258530038408935+0j)
(-3.0517061532009393e-05+0.0004577559302560985j)
(-0.00018310236919205636+0.0008239606395363808j)
(-0.0003051706007681787+0.0003051706007681787j)
(0.00015258530038408935+0.0006408583140000701j)
(0.0003967217926401645+0.0009765459690243006j)
(-3.0517061532009393e-05+0.0005493070930242538j)
(9.155118459602818e-05+0.00024413649225607514j)
(6.1034123064018786e-05+3.0517061532009393e-05j)
(-9.155118459602818e-05+0.0004577559302560985j)
(0.00024413649225607514+0.0005493070930242538j)
(0.0002746535465121269+0.0003662047383841127j)
(-0.00033568768412806094+0.00012206824612803757j)
(-9.155118459602818e-05+0.00024413649225607514j)
(0.00012206824612803757+0j)
(-6.1034123064018786e-05+0.0007018924225121737j)
(9.155118459602818e-05+0j)
(-3.0517061532009393e-05-9.155118459602818e-05j)
0.0004882729845121503j
(-3.0517061532009393e-05+0.00018310236919205636j)
(0.00018310236919205636+3.0517061532009393e-05j)
(0.00033568768412806094+0.0003967217926401645j)
(0.00012206824612803757-9.155118459602818e-05j)
(0.0005187900387682021+0.0012817166280001402j)
(0.00015258530038408935+0.0010986141860485077j)
(0.0002746535465121269+0.0013427507365122437j)
(0.00012206824612803757+0.0003662047383841127j)
-0.00012206824612803757j
(-0.00012206824612803757+0.0003967217926401645j)
(0.00012206824612803757+0.0004577559302560985j)
(6.1034123064018786e-05+0.0008544777520000935j)
(0.00018310236919205636+0.0016174042830243707j)
(6.1034123064018786e-05+0.0013427507365122437j)
(-0.00021361943800002337+0.00018310236919205636j)
(3.0517061532009393e-05+0.0004577559302560985j)
(-6.1034123064018786e-05-0.00018310236919205636j)
(0.00015258530038408935+0.0006408583140000701j)
(0.0005493070930242538+0.0006713753682561219j)
(0.0002746535465121269+0.0004882729845121503j)
(0.00012206824612803757+0.0008239606395363808j)
(0.00024413649225607514+0.0008544777520000935j)
0.0007629265310242772j
(-0.00015258530038408935+0.0005798241472803056j)
(0.00033568768412806094+0.00042723887600004673j)
(0.0003662047383841127-0.0003967217926401645j)
-0.00012206824612803757j
(6.1034123064018786e-05+0.00012206824612803757j)
(-9.155118459602818e-05+0.0006103412015363574j)
(9.155118459602818e-05+0.00021361943800002337j)
(-6.1034123064018786e-05+0.0002746535465121269j)
(0.00042723887600004673+0.0005493070930242538j)
(9.155118459602818e-05+0.0007324094767682254j)
0.0009460289147682488j
(6.1034123064018786e-05+0.0008849948062561452j)
(0.0003051706007681787+3.0517061532009393e-05j)
(0.00015258530038408935+0.0008544777520000935j)
(0.00021361943800002337+0.0004882729845121503j)
(-0.0003051706007681787-0.0007324094767682254j)
(0.0006103412015363574+0.000915511860512197j)
(0.00033568768412806094+0.0016174042830243707j)
(0.0004882729845121503+0.0017394725000485778j)
(0.00042723887600004673+0.002990672132000327j)
(0.0005493070930242538+0.003051706124097109j)
(9.155118459602818e-05+0.0004577559302560985j)
(9.155118459602818e-05-0.00015258530038408935j)
(0.00033568768412806094+0.0010070630814880133j)
(9.155118459602818e-05+0.0010070630814880133j)
(-0.00021361943800002337+0.0005187900387682021j)
(0.0002746535465121269-3.0517061532009393e-05j)
(-9.155118459602818e-05+0.0003051706007681787j)
(0.0004577559302560985+0.0008239606395363808j)
(0.00015258530038408935+0.0004882729845121503j)
(0.00018310236919205636+0.0006713753682561219j)
(0.00021361943800002337+0.00021361943800002337j)
(0.00018310236919205636+0.0003967217926401645j)
(0.0004577559302560985+0.0011291312985122204j)
(6.1034123064018786e-05+0.0006713753682561219j)
(0.0003051706007681787+0.0005798241472803056j)
(-0.00015258530038408935+0.0005493070930242538j)
(0.00018310236919205636-9.155118459602818e-05j)
(9.155118459602818e-05+0.0010375800775364041j)
(-0.00015258530038408935+0.0003662047383841127j)
(0.00015258530038408935+0.0009765459690243006j)
(-3.0517061532009393e-05+0.0004882729845121503j)
(0.0003051706007681787+0.00015258530038408935j)
(-6.1034123064018786e-05+0.0002746535465121269j)
(6.1034123064018786e-05+0.00024413649225607514j)
(0.0003051706007681787+0.0003051706007681787j)
(-3.0517061532009393e-05+0.0006103412015363574j)
(-9.155118459602818e-05+0.00012206824612803757j)
0.0004577559302560985j
(0.00015258530038408935+0.0006103412015363574j)
(-3.0517061532009393e-05+0.00024413649225607514j)
(6.1034123064018786e-05+0.0007629265310242772j)
(0.0003051706007681787+0.0003662047383841127j)
(-0.0002746535465121269+0.0004882729845121503j)
(-9.155118459602818e-05+0.0002746535465121269j)
(0.00018310236919205636+0.0015563701745122671j)
(0.0003051706007681787+0.0006103412015363574j)
6.1034123064018786e-05j
(-6.1034123064018786e-05-0.00021361943800002337j)
(9.155118459602818e-05+0.0005798241472803056j)
(6.1034123064018786e-05+0.0008849948062561452j)
(-6.1034123064018786e-05-0.0002746535465121269j)
(-6.1034123064018786e-05-3.0517061532009393e-05j)
(3.0517061532009393e-05-0.00024413649225607514j)
(0.00015258530038408935+0.0003662047383841127j)
(9.155118459602818e-05+3.0517061532009393e-05j)
(6.1034123064018786e-05-0.0002746535465121269j)
(-3.0517061532009393e-05-0.00021361943800002337j)
(0.0003967217926401645+0j)
(0.0003051706007681787+0.0005798241472803056j)
(-9.155118459602818e-05+0.00015258530038408935j)
(0.0004577559302560985+0.0002746535465121269j)
(0.00021361943800002337-3.0517061532009393e-05j)
(0.00024413649225607514+0.0002746535465121269j)
(0.00033568768412806094+0.0010375800775364041j)
(9.155118459602818e-05+0.00042723887600004673j)
(-6.1034123064018786e-05+6.1034123064018786e-05j)
(0.00012206824612803757-9.155118459602818e-05j)
(-0.00012206824612803757+0.0002746535465121269j)
(6.1034123064018786e-05+0.00033568768412806094j)
(0.00024413649225607514+0.0005187900387682021j)
(0.00018310236919205636+0.00033568768412806094j)
(6.1034123064018786e-05-6.1034123064018786e-05j)
(0.0003967217926401645+0.00012206824612803757j)
(-0.00033568768412806094+0.00012206824612803757j)
(0.00012206824612803757-6.1034123064018786e-05j)
(-0.00024413649225607514-9.155118459602818e-05j)
(0.00012206824612803757+0.0002746535465121269j)
(9.155118459602818e-05-9.155118459602818e-05j)
(0.0006408583140000701+0.0014648189535364509j)
(0.00012206824612803757+0.00015258530038408935j)
(-0.00033568768412806094-0.00018310236919205636j)
(6.1034123064018786e-05+0.00024413649225607514j)
(0.00018310236919205636+0.0002746535465121269j)
(-0.00021361943800002337+0.0005187900387682021j)
(0.00018310236919205636+0.0014648189535364509j)
(0.0006713753682561219+0.0019225748255848885j)
(0.00033568768412806094+0.0014953360660001636j)
(0.00042723887600004673+0.0006103412015363574j)
(6.1034123064018786e-05+3.0517061532009393e-05j)
(0.00024413649225607514+0.0004577559302560985j)
(0.00021361943800002337+0.0007629265310242772j)
(0.00018310236919205636+0.0009460289147682488j)
(0.0004882729845121503+0.0004577559302560985j)
(0.00018310236919205636+0.0008544777520000935j)
(9.155118459602818e-05+0.0010070630814880133j)
(3.0517061532009393e-05+0.0004882729845121503j)
(0.00012206824612803757-9.155118459602818e-05j)
(3.0517061532009393e-05+0.00024413649225607514j)
(3.0517061532009393e-05+0.0004882729845121503j)
(0.0003967217926401645+0.000793443585280329j)
(6.1034123064018786e-05+0.0011596482945606112j)
(0.00018310236919205636+0.00024413649225607514j)
(0.00015258530038408935+0j)
(-0.00018310236919205636+9.155118459602818e-05j)
(-0.00024413649225607514+0.00015258530038408935j)
(-3.0517061532009393e-05+0.00042723887600004673j)
(0.00018310236919205636+9.155118459602818e-05j)
(-0.00021361943800002337+0.0003662047383841127j)
0.00015258530038408935j
(3.0517061532009393e-05+0.00021361943800002337j)
(-0.00021361943800002337+6.1034123064018786e-05j)
(0.0005187900387682021+0.0004577559302560985j)
(0.00024413649225607514+0.0008239606395363808j)
(0.00021361943800002337+0.0006103412015363574j)
(-0.00018310236919205636+3.0517061532009393e-05j)
(-0.00015258530038408935-0.00018310236919205636j)
(9.155118459602818e-05+0.0005187900387682021j)
(-0.00018310236919205636+0.00018310236919205636j)
(0.00012206824612803757+0.00012206824612803757j)
(0.00015258530038408935+0.00024413649225607514j)
-9.155118459602818e-05j
(0.00021361943800002337+0.0004882729845121503j)
(6.1034123064018786e-05+0.0008849948062561452j)
(0.00012206824612803757+0.0009460289147682488j)
(-6.1034123064018786e-05+6.1034123064018786e-05j)
(6.1034123064018786e-05+0.00033568768412806094j)
(0.00033568768412806094+0.0011596482945606112j)
(0.00018310236919205636+0.0024108479265123606j)
(0.0003967217926401645+0.0016784383915364742j)
0.00024413649225607514j
(3.0517061532009393e-05+0.00012206824612803757j)
(-9.155118459602818e-05+0.0008239606395363808j)
(0.00042723887600004673+0.000915511860512197j)
(0.00012206824612803757+0.0009765459690243006j)
(-0.00018310236919205636+0.0006713753682561219j)
(0.0002746535465121269+0.000793443585280329j)
(0.0003967217926401645-6.1034123064018786e-05j)
(0.00012206824612803757+0.00021361943800002337j)
(3.0517061532009393e-05+0.0006103412015363574j)
(-0.00021361943800002337-9.155118459602818e-05j)
(0.0003051706007681787+3.0517061532009393e-05j)
(0.0006103412015363574+0.00018310236919205636j)
(0.0002746535465121269+0.0004882729845121503j)
(0.0003051706007681787+0.0009460289147682488j)
(-0.00015258530038408935+0.0014953360660001636j)
(0.0005187900387682021+0.0014953360660001636j)
(0.00042723887600004673+0.0011291312985122204j)
(0.00042723887600004673+0.0008239606395363808j)
(0.0003051706007681787+0.00018310236919205636j)
(-0.0004882729845121503-3.0517061532009393e-05j)
(-3.0517061532009393e-05+0.00012206824612803757j)
(3.0517061532009393e-05+0.00024413649225607514j)
(0.00015258530038408935+0.0002746535465121269j)
(3.0517061532009393e-05-0.00012206824612803757j)
(9.155118459602818e-05+0.0003662047383841127j)
(0.00012206824612803757+0.000915511860512197j)
(0.00024413649225607514+0.0008239606395363808j)
(0.00033568768412806094+0.00042723887600004673j)
(-0.00015258530038408935-6.1034123064018786e-05j)
(-0.00015258530038408935+0.0003051706007681787j)
(0.0002746535465121269+0.0006408583140000701j)
(0.0006408583140000701+0.0015258530620485544j)
(9.155118459602818e-05+0.0010375800775364041j)
(-9.155118459602818e-05+0.00042723887600004673j)
(-6.1034123064018786e-05-0.00024413649225607514j)
(-3.0517061532009393e-05-9.155118459602818e-05j)
(0.0003662047383841127+0.00042723887600004673j)
(-0.00012206824612803757-0.0005493070930242538j)
(-9.155118459602818e-05+0.00015258530038408935j)
(0.00024413649225607514+3.0517061532009393e-05j)
(6.1034123064018786e-05+0j)
(0.00021361943800002337+0.00012206824612803757j)
(6.1034123064018786e-05+0.0004577559302560985j)
(0.0003662047383841127+0.0012206824030727148j)
(-9.155118459602818e-05+0.001586887170560658j)
0.0010680971900001168j
(0.0004882729845121503+0.0008544777520000935j)
(-0.00024413649225607514+0.00012206824612803757j)
(-9.155118459602818e-05+0.0006408583140000701j)
(0.0003662047383841127+0.0007629265310242772j)
(-0.00012206824612803757+3.0517061532009393e-05j)
(-0.0004882729845121503+0.00018310236919205636j)
(6.1034123064018786e-05-0.00021361943800002337j)
(-0.0002746535465121269-0.0003662047383841127j)
(-0.00042723887600004673-0.00012206824612803757j)
(0.0002746535465121269+0.0003967217926401645j)
(3.0517061532009393e-05+0.0004577559302560985j)
(0.00021361943800002337+0.0006713753682561219j)
(0.00018310236919205636+0.0005493070930242538j)
(-3.0517061532009393e-05-0.00018310236919205636j)
(0.00024413649225607514+0.0004577559302560985j)
(-0.00015258530038408935+0.0005493070930242538j)
(-0.0005798241472803056+0.0005798241472803056j)
(0.0003662047383841127+0.00012206824612803757j)
(0.00012206824612803757+0.0007629265310242772j)
(0.00033568768412806094+0.0009460289147682488j)
(-0.0002746535465121269+0.00042723887600004673j)
(-6.1034123064018786e-05-0.00015258530038408935j)
(3.0517061532009393e-05+0.00033568768412806094j)
(0.0005493070930242538+0.00033568768412806094j)
(0.00018310236919205636+9.155118459602818e-05j)
(-0.00015258530038408935+0.0003967217926401645j)
(-0.00012206824612803757+0.00042723887600004673j)
9.155118459602818e-05j
(6.1034123064018786e-05+0.0004882729845121503j)
(9.155118459602818e-05+0.0004577559302560985j)
(0.00015258530038408935+0.00015258530038408935j)
(-6.1034123064018786e-05+0.0003662047383841127j)
(0.00024413649225607514+0.00018310236919205636j)
(0.00012206824612803757-3.0517061532009393e-05j)
(6.1034123064018786e-05+0.0004577559302560985j)
(6.1034123064018786e-05+0.0003967217926401645j)
(0.00018310236919205636-0.00024413649225607514j)
(6.1034123064018786e-05-3.0517061532009393e-05j)
(0.00012206824612803757+0.0002746535465121269j)
(-6.1034123064018786e-05+0.00015258530038408935j)
(-6.1034123064018786e-05+0.0002746535465121269j)
(6.1034123064018786e-05+0j)
(-0.00015258530038408935-0.00015258530038408935j)
(0.0003967217926401645+0.00024413649225607514j)
(0.0003051706007681787+0.0005187900387682021j)
(0.00018310236919205636+0.0005493070930242538j)
(9.155118459602818e-05+0.0012206824030727148j)
(9.155118459602818e-05+0.0011596482945606112j)
(0.00012206824612803757+0.00021361943800002337j)
(0.00024413649225607514+0.0002746535465121269j)
(-3.0517061532009393e-05-3.0517061532009393e-05j)
(0.00012206824612803757+0.0003967217926401645j)
(-0.00024413649225607514+3.0517061532009393e-05j)
(0.00021361943800002337+6.1034123064018786e-05j)
(-0.00021361943800002337+0.00033568768412806094j)
(-0.00018310236919205636+0.0003051706007681787j)
(0.00018310236919205636+0.00042723887600004673j)
(-6.1034123064018786e-05+0.0003967217926401645j)
(9.155118459602818e-05+0.00021361943800002337j)
-9.155118459602818e-05j
(-6.1034123064018786e-05+0.00033568768412806094j)
(-0.00015258530038408935-3.0517061532009393e-05j)
(-0.00018310236919205636+0.00033568768412806094j)
(-6.1034123064018786e-05+0.0003051706007681787j)
(6.1034123064018786e-05-6.1034123064018786e-05j)
(9.155118459602818e-05+3.0517061532009393e-05j)
(0.0003051706007681787+0.00024413649225607514j)
(0.0003662047383841127+0.000915511860512197j)
(0.0003967217926401645+0.0010375800775364041j)
9.155118459602818e-05j
(-0.00012206824612803757+0.0007629265310242772j)
(9.155118459602818e-05+0.0007324094767682254j)
(0.00012206824612803757-9.155118459602818e-05j)
(0.00024413649225607514+0.0003051706007681787j)
(0.0006408583140000701+0.001190165407024324j)
(0.0005798241472803056+0.0008239606395363808j)
(-0.00015258530038408935+0.00018310236919205636j)
(0.00021361943800002337+6.1034123064018786e-05j)
(-9.155118459602818e-05+0.0003662047383841127j)
(0.00015258530038408935+0.0004882729845121503j)
(-0.00015258530038408935+3.0517061532009393e-05j)
(-3.0517061532009393e-05+0.00021361943800002337j)
(0.00033568768412806094+0.00024413649225607514j)
(0.00012206824612803757+0.0002746535465121269j)
(-9.155118459602818e-05+0.0005798241472803056j)
0.0005187900387682021j
(0.00033568768412806094+0.0006713753682561219j)
(0.0003051706007681787+0.0010070630814880133j)
(0.0003051706007681787+0.0010070630814880133j)
(0.00021361943800002337+0.0006408583140000701j)
(-0.0002746535465121269+0.0006408583140000701j)
(-0.0003967217926401645+0.0002746535465121269j)
(0.0003967217926401645+0.00021361943800002337j)
(6.1034123064018786e-05+0.0003051706007681787j)
(-0.0003967217926401645+0.0004577559302560985j)
(0.0004882729845121503+0.0008849948062561452j)
(0.00015258530038408935+0.0005493070930242538j)
(-0.00042723887600004673+3.0517061532009393e-05j)
(0.0003051706007681787+0.0004577559302560985j)
(0.0003662047383841127+0.0006713753682561219j)
(0.0003051706007681787+0.0011596482945606112j)
(3.0517061532009393e-05+0.00042723887600004673j)
(0.00015258530038408935+0.0003967217926401645j)
(0.00012206824612803757+0.0003662047383841127j)
(-3.0517061532009393e-05+0.0005187900387682021j)
(0.0003967217926401645+0.0021667112596333027j)
(0.0007018924225121737+0.0018920578295364976j)
(0.00018310236919205636+0.0008239606395363808j)
(0.00021361943800002337+0.00024413649225607514j)
(-0.0003051706007681787+0.00018310236919205636j)
(-0.00021361943800002337+0.00042723887600004673j)
(0.0002746535465121269+0.0005798241472803056j)
(-6.1034123064018786e-05+0.0003051706007681787j)
(6.1034123064018786e-05+0.00021361943800002337j)
(-0.000793443585280329+0.00021361943800002337j)
(-0.0002746535465121269+0.00024413649225607514j)
(9.155118459602818e-05+0.0004577559302560985j)
(9.155118459602818e-05-0.0003662047383841127j)
(3.0517061532009393e-05+6.1034123064018786e-05j)
(-0.00021361943800002337+0.0005493070930242538j)
(0.00024413649225607514+0.0007629265310242772j)
(0.00024413649225607514+0.0005187900387682021j)
(-0.00018310236919205636+6.1034123064018786e-05j)
(9.155118459602818e-05+0.0003967217926401645j)
(-0.00015258530038408935+0.00024413649225607514j)
(0.00042723887600004673+0.00015258530038408935j)
(0.00024413649225607514+0.0006408583140000701j)
(0.00033568768412806094+0.0002746535465121269j)
(0.0003662047383841127+0.0003051706007681787j)
(0.00015258530038408935+0.0004882729845121503j)
(9.155118459602818e-05+0.0003051706007681787j)
(-0.00015258530038408935+0.00018310236919205636j)
(0.0003051706007681787-0.00015258530038408935j)
(-3.0517061532009393e-05+0.0003051706007681787j)
(0.0004577559302560985+0.0010986141860485077j)
(0.0006103412015363574+0.0010680971900001168j)
(9.155118459602818e-05+0.0011291312985122204j)
(0.0002746535465121269+0.0004577559302560985j)
(0.0003051706007681787+0.0005187900387682021j)
(0.00033568768412806094+0.0008239606395363808j)
(0.0005187900387682021+0.0010986141860485077j)
(0.00021361943800002337+0.0005798241472803056j)
(0.00042723887600004673+0.0007629265310242772j)
(0.0002746535465121269+0.0010986141860485077j)
(0.0004882729845121503+0.0014953360660001636j)
(0.0006103412015363574+0.001708955504000187j)
(0.00033568768412806094+0.0012206824030727148j)
(0.00024413649225607514+0.0003662047383841127j)
(-6.1034123064018786e-05+0.0003662047383841127j)
(0.0003662047383841127+0.0006408583140000701j)
(-0.0002746535465121269+0.00033568768412806094j)
(0.00024413649225607514-3.0517061532009393e-05j)
(0.0004882729845121503+0.0006713753682561219j)
0.0012817166280001402j
(0.00033568768412806094+0.0011291312985122204j)
(-0.00021361943800002337-3.0517061532009393e-05j)
(0.00015258530038408935+0.00018310236919205636j)
(-0.00015258530038408935+0.00012206824612803757j)
(-0.00012206824612803757-0.00042723887600004673j)
(0.00024413649225607514+0.0003662047383841127j)
(0.0003051706007681787+0.0018920578295364976j)
(0.0006103412015363574+0.001190165407024324j)
(-0.00021361943800002337+0.00042723887600004673j)
(0.00012206824612803757+0.00018310236919205636j)
(6.1034123064018786e-05-0.00021361943800002337j)
(-9.155118459602818e-05+0.00012206824612803757j)
0.00018310236919205636j
(0.00015258530038408935+0.00015258530038408935j)
(0.000793443585280329+0.0006713753682561219j)
(0.0003051706007681787+0.00021361943800002337j)
(0.00018310236919205636-0.00018310236919205636j)
(-0.00021361943800002337+0.00015258530038408935j)
(0.00021361943800002337+0.00012206824612803757j)
(0.00018310236919205636+0.001190165407024324j)
(0.0003967217926401645+0.0008544777520000935j)
(-6.1034123064018786e-05-9.155118459602818e-05j)
(0.0003967217926401645+0.0004577559302560985j)
(3.0517061532009393e-05+0.0005187900387682021j)
(-0.0003967217926401645+9.155118459602818e-05j)
(-0.00012206824612803757-0.00015258530038408935j)
(-0.00012206824612803757+0.00033568768412806094j)
(-0.00015258530038408935+0.0003662047383841127j)
(6.1034123064018786e-05+0.00018310236919205636j)
(-0.00012206824612803757+0.0002746535465121269j)
(-0.00024413649225607514+0.00024413649225607514j)
(-3.0517061532009393e-05+0.00024413649225607514j)
(-3.0517061532009393e-05+0.0003662047383841127j)
(0.0003051706007681787+0.0002746535465121269j)
(0.00024413649225607514+0.0005798241472803056j)
(-0.00012206824612803757+0.0007324094767682254j)
(-0.00015258530038408935+0.0007018924225121737j)
(-0.0003051706007681787+0.00015258530038408935j)
(3.0517061532009393e-05+0.00024413649225607514j)
(0.0003967217926401645+0.0004577559302560985j)
(-0.00012206824612803757-9.155118459602818e-05j)
(-0.00015258530038408935-9.155118459602818e-05j)
(0.0003051706007681787+9.155118459602818e-05j)
(-0.0003662047383841127+0.00012206824612803757j)
(-0.00012206824612803757+0.00015258530038408935j)
(0.00012206824612803757+3.0517061532009393e-05j)
(9.155118459602818e-05-0.00021361943800002337j)
(-9.155118459602818e-05+0.00015258530038408935j)
(-0.00021361943800002337+6.1034123064018786e-05j)
(-9.155118459602818e-05+0.0003051706007681787j)
(0.00012206824612803757+0.00015258530038408935j)
(0.00021361943800002337-6.1034123064018786e-05j)
(9.155118459602818e-05+0.0008544777520000935j)
(0.00021361943800002337+0.0012511995155364275j)
(-9.155118459602818e-05+0.0010375800775364041j)
(0.0004577559302560985+0.0003051706007681787j)
(6.1034123064018786e-05+0.00018310236919205636j)
(-0.00018310236919205636-0.00033568768412806094j)
(-6.1034123064018786e-05-0.00042723887600004673j)
0.00015258530038408935j
(0.00042723887600004673+0.00012206824612803757j)
(-0.00012206824612803757+0.0004882729845121503j)
(0.00018310236919205636-0.00012206824612803757j)
(-0.00024413649225607514+0.00018310236919205636j)
(3.0517061532009393e-05+0.0004882729845121503j)
(6.1034123064018786e-05+0.00042723887600004673j)
(0.00012206824612803757+0.0007629265310242772j)
(0.0004577559302560985+0.0008544777520000935j)
(-0.0003662047383841127-0.00012206824612803757j)
(9.155118459602818e-05+9.155118459602818e-05j)
0.0005798241472803056j
(0.00021361943800002337+0.0005798241472803056j)
(-0.00018310236919205636-3.0517061532009393e-05j)
(0.00012206824612803757+0.00012206824612803757j)
(3.0517061532009393e-05+6.1034123064018786e-05j)
(3.0517061532009393e-05+0.0003051706007681787j)
(-0.0005187900387682021+6.1034123064018786e-05j)
-0.00024413649225607514j
(0.0002746535465121269+0.0002746535465121269j)
(-0.00021361943800002337+0.00018310236919205636j)
(0.00021361943800002337-0.00033568768412806094j)
(9.155118459602818e-05-9.155118459602818e-05j)
(-0.00012206824612803757-0.0007018924225121737j)
(0.00024413649225607514+0.0005493070930242538j)
(-0.00012206824612803757+6.1034123064018786e-05j)
(-0.00015258530038408935+0.00015258530038408935j)
(-6.1034123064018786e-05+0.0007324094767682254j)
0.0008849948062561452j
(0.0008239606395363808+0.0016174042830243707j)
(0.0003967217926401645+0.001831023721024394j)
0.0011596482945606112j
(0.0002746535465121269+0.0003967217926401645j)
(-0.00015258530038408935+0.0005493070930242538j)
(0.00018310236919205636+0.0006713753682561219j)
(0.00021361943800002337+0.0007629265310242772j)
(0.00018310236919205636+0.0010680971900001168j)
0.0005493070930242538j
(0.00024413649225607514+0.0007018924225121737j)
(6.1034123064018786e-05+0.0011291312985122204j)
(-0.0003967217926401645+6.1034123064018786e-05j)
(9.155118459602818e-05+0.0005187900387682021j)
(0.00015258530038408935+0.0007018924225121737j)
(0.0007324094767682254+0.0004577559302560985j)
(0.0002746535465121269+0.001861540717072785j)
(0.0003662047383841127+0.0008544777520000935j)
(-0.00012206824612803757-0.00018310236919205636j)
(-0.0003051706007681787+3.0517061532009393e-05j)
(-0.00015258530038408935+0.00012206824612803757j)
(-6.1034123064018786e-05+0.00024413649225607514j)
(0.0003051706007681787+0.0005187900387682021j)
(6.1034123064018786e-05+0.00042723887600004673j)
(-0.0003051706007681787+0.00021361943800002337j)
(-0.00015258530038408935+0.00042723887600004673j)
(6.1034123064018786e-05+0.0004882729845121503j)
(-3.0517061532009393e-05+0.0005493070930242538j)
0.00042723887600004673j
(-0.00015258530038408935+0.0005493070930242538j)
(3.0517061532009393e-05+0.0004577559302560985j)
(0.00015258530038408935+0.00021361943800002337j)
(-9.155118459602818e-05+0.00042723887600004673j)
(-9.155118459602818e-05+0.00033568768412806094j)
(0.0003051706007681787+0.0008239606395363808j)
(6.1034123064018786e-05+0.0006408583140000701j)
(0.00021361943800002337+0.0006408583140000701j)
(0.00018310236919205636+0.0012206824030727148j)
(0.00042723887600004673+0.0015258530620485544j)
(0.00012206824612803757+0.0010986141860485077j)
(-6.1034123064018786e-05+0.00024413649225607514j)
0j
(-0.00018310236919205636+0.0005187900387682021j)
(0.0004882729845121503+0.00024413649225607514j)
(6.1034123064018786e-05+0.0005493070930242538j)
0.0006103412015363574j
(-0.0002746535465121269+3.0517061532009393e-05j)
(-9.155118459602818e-05+0.00015258530038408935j)
(-0.00015258530038408935+0.0005493070930242538j)
(0.00018310236919205636+0.000915511860512197j)
(0.0003967217926401645+0.0014037848450243473j)
(0.0002746535465121269+0.0012511995155364275j)
(-0.0003662047383841127+0.0006103412015363574j)
(-3.0517061532009393e-05+0.00015258530038408935j)
(0.00033568768412806094+0.0004882729845121503j)
(0.00033568768412806094+0.0003967217926401645j)
(0.00012206824612803757+0.00015258530038408935j)
(-0.00015258530038408935-6.1034123064018786e-05j)
(0.00018310236919205636-3.0517061532009393e-05j)
(6.1034123064018786e-05+0.00021361943800002337j)
0.0006408583140000701j
(0.0003051706007681787+0.00015258530038408935j)
(6.1034123064018786e-05+0.00018310236919205636j)
(9.155118459602818e-05+0.0002746535465121269j)
(6.1034123064018786e-05+0.0006103412015363574j)
(0.0003051706007681787+0j)
(-0.00024413649225607514-6.1034123064018786e-05j)
(-3.0517061532009393e-05+0.0004882729845121503j)
(0.00012206824612803757-9.155118459602818e-05j)
(0.00021361943800002337+6.1034123064018786e-05j)
(-6.1034123064018786e-05+9.155118459602818e-05j)
(-0.00018310236919205636-0.00024413649225607514j)
(-6.1034123064018786e-05+0.00012206824612803757j)
(3.0517061532009393e-05+0j)
(6.1034123064018786e-05+0.00033568768412806094j)
(9.155118459602818e-05-3.0517061532009393e-05j)
(0.00021361943800002337-6.1034123064018786e-05j)
(0.0004882729845121503+0.0005493070930242538j)
(0.00012206824612803757+0.0006713753682561219j)
(-0.00024413649225607514+0.00015258530038408935j)
(0.0003051706007681787+3.0517061532009393e-05j)
(0.00018310236919205636+0.0008239606395363808j)
(-3.0517061532009393e-05+0.0007324094767682254j)
(-0.00024413649225607514+0j)
(-0.0006103412015363574-6.1034123064018786e-05j)
(-0.00018310236919205636+0.0003662047383841127j)
(0.00015258530038408935-9.155118459602818e-05j)
(0.0003662047383841127+0j)
(0.0005798241472803056+0.00012206824612803757j)
(0.00012206824612803757+0.0006713753682561219j)
(0.0005798241472803056+0.0011291312985122204j)
(0.0004577559302560985+0.000915511860512197j)
(0.00015258530038408935+0.0006408583140000701j)
(6.1034123064018786e-05+0.00024413649225607514j)
(0.00015258530038408935+0.0006103412015363574j)
(3.0517061532009393e-05+0.0003662047383841127j)
0.0005493070930242538j
(0.00018310236919205636-6.1034123064018786e-05j)
(-0.0003051706007681787-0.00012206824612803757j)
6.1034123064018786e-05j
(-0.0003051706007681787-6.1034123064018786e-05j)
(0.00015258530038408935-3.0517061532009393e-05j)
(-0.00015258530038408935+0.0002746535465121269j)
(-0.00024413649225607514+0.00012206824612803757j)
0.00033568768412806094j
(9.155118459602818e-05+0.0004882729845121503j)
(-3.0517061532009393e-05+3.0517061532009393e-05j)
-9.155118459602818e-05j
6.1034123064018786e-05j
(3.0517061532009393e-05-9.155118459602818e-05j)
(3.0517061532009393e-05-0.00024413649225607514j)
(-0.00012206824612803757+0.00012206824612803757j)
(0.0002746535465121269+0.0003051706007681787j)
-6.1034123064018786e-05j
(-0.00012206824612803757+0.00012206824612803757j)
(9.155118459602818e-05+0.0005798241472803056j)
(-0.00012206824612803757+0.0009460289147682488j)
(-6.1034123064018786e-05+6.1034123064018786e-05j)
(6.1034123064018786e-05+0.0007629265310242772j)
(0.0005187900387682021+0.0010070630814880133j)
(0.00024413649225607514+0.0005493070930242538j)
(0.00015258530038408935+3.0517061532009393e-05j)
(0.00033568768412806094+0.0006713753682561219j)
(0.0005493070930242538+0.0008544777520000935j)
(9.155118459602818e-05+0.0004577559302560985j)
(0.00018310236919205636-0.00012206824612803757j)
(0.00012206824612803757-0.0003051706007681787j)
(0.00012206824612803757+0.0005187900387682021j)
0.0003662047383841127j
(-0.0003662047383841127+0.0003051706007681787j)
(0.0003051706007681787+0.0014953360660001636j)
(0.00012206824612803757+0.0014648189535364509j)
(0.00018310236919205636+0.0007018924225121737j)
(9.155118459602818e-05+0.0003051706007681787j)
(0.0002746535465121269-0.0002746535465121269j)
(0.00012206824612803757+0.00042723887600004673j)
(-0.00015258530038408935+0.0005493070930242538j)
(0.00015258530038408935+0.0003662047383841127j)
(0.00012206824612803757+0.00021361943800002337j)
(0.00015258530038408935+0.0003662047383841127j)
(0.00018310236919205636+0.000793443585280329j)
(3.0517061532009393e-05+0.0004577559302560985j)
(-0.0002746535465121269-6.1034123064018786e-05j)
(-3.0517061532009393e-05-0.00018310236919205636j)
(9.155118459602818e-05+0j)
(0.0003967217926401645+0.00018310236919205636j)
(-0.00018310236919205636+0.0003662047383841127j)
(0.0003662047383841127+0j)
(0.00012206824612803757-6.1034123064018786e-05j)
(6.1034123064018786e-05+0.0003051706007681787j)
(-0.00012206824612803757+0.0003967217926401645j)
(9.155118459602818e-05+0.00012206824612803757j)
(0.00021361943800002337+0.0005187900387682021j)
(-9.155118459602818e-05+0.0006713753682561219j)
(0.00033568768412806094+0.00033568768412806094j)
(-0.00015258530038408935+0.00042723887600004673j)
(0.00021361943800002337+0.0011291312985122204j)
(0.00012206824612803757+0.0007018924225121737j)
(6.1034123064018786e-05+0.0008544777520000935j)
(0.00024413649225607514+0.0007324094767682254j)
(-6.1034123064018786e-05+0.0007018924225121737j)
(6.1034123064018786e-05+0.0005493070930242538j)
0.00018310236919205636j
(0.00018310236919205636+9.155118459602818e-05j)
(6.1034123064018786e-05+0.0003967217926401645j)
(3.0517061532009393e-05+3.0517061532009393e-05j)
(-3.0517061532009393e-05-3.0517061532009393e-05j)
(-0.00024413649225607514+9.155118459602818e-05j)
(-0.00024413649225607514-6.1034123064018786e-05j)
(3.0517061532009393e-05+0.0003051706007681787j)
(-0.00021361943800002337+0.00018310236919205636j)
(-0.0003662047383841127-9.155118459602818e-05j)
(0.00024413649225607514-0.00015258530038408935j)
(-0.00024413649225607514-0.00042723887600004673j)
(-0.0004882729845121503+0.00021361943800002337j)
(-9.155118459602818e-05+0.0004882729845121503j)
(-9.155118459602818e-05+9.155118459602818e-05j)
(0.00015258530038408935+0.00012206824612803757j)
(-0.00012206824612803757-6.1034123064018786e-05j)
(9.155118459602818e-05-0.00012206824612803757j)
(0.0003662047383841127+0.0007018924225121737j)
(6.1034123064018786e-05+0.0008239606395363808j)
(-0.00024413649225607514+0.0003967217926401645j)
(6.1034123064018786e-05-0.00012206824612803757j)
(-0.00012206824612803757+9.155118459602818e-05j)
(0.00021361943800002337+0.0004577559302560985j)
-9.155118459602818e-05j
0.00033568768412806094j
(0.00024413649225607514+0.0005798241472803056j)
(-0.0003967217926401645+0.0002746535465121269j)
(0.0003662047383841127+0.0003662047383841127j)
(0.00021361943800002337+0.0004577559302560985j)
(-0.00015258530038408935+0.0004577559302560985j)
(0.00015258530038408935+6.1034123064018786e-05j)
0.0003051706007681787j
(0.00024413649225607514+0.0007629265310242772j)
(0.0004577559302560985+0.0016479212790727615j)
(0.0004882729845121503+0.0010680971900001168j)
(-0.00012206824612803757+0.00033568768412806094j)
(-0.00012206824612803757+9.155118459602818e-05j)
(0.00024413649225607514+0.00024413649225607514j)
(0.00012206824612803757+0.0008239606395363808j)
(9.155118459602818e-05+0.000915511860512197j)
(0.00018310236919205636+6.1034123064018786e-05j)
(-0.0003051706007681787+3.0517061532009393e-05j)
(-0.00033568768412806094+3.0517061532009393e-05j)
(0.00012206824612803757+0.0002746535465121269j)
(3.0517061532009393e-05+3.0517061532009393e-05j)
(0.0003662047383841127+0.00012206824612803757j)
(0.00018310236919205636+0.00012206824612803757j)
(-3.0517061532009393e-05+0.0006408583140000701j)
(0.00021361943800002337+0.00024413649225607514j)
(3.0517061532009393e-05+6.1034123064018786e-05j)
0.0002746535465121269j
(9.155118459602818e-05-0.0002746535465121269j)
(-0.0003662047383841127+0.0002746535465121269j)
(9.155118459602818e-05+0.000915511860512197j)
(0.00024413649225607514+0.0006408583140000701j)
(0.00012206824612803757-9.155118459602818e-05j)
(6.1034123064018786e-05+0.0003967217926401645j)
(0.00024413649225607514+0.0014343018410727382j)
(0.0003967217926401645+0.0010986141860485077j)
(-9.155118459602818e-05+0.0006713753682561219j)
(0.000793443585280329+0.0013732677325606346j)
(0.00015258530038408935+0.0007018924225121737j)
(-0.00018310236919205636+0.0005798241472803056j)
(0.0002746535465121269+0.0013732677325606346j)
(0.0003051706007681787+0.0016784383915364742j)
(0.00018310236919205636+0.0014037848450243473j)
0.0004882729845121503j
(-0.0003051706007681787+6.1034123064018786e-05j)
(0.00021361943800002337+0.00015258530038408935j)
(-0.00012206824612803757+0.0004577559302560985j)
(-6.1034123064018786e-05+3.0517061532009393e-05j)
(6.1034123064018786e-05-9.155118459602818e-05j)
(-6.1034123064018786e-05+9.155118459602818e-05j)
(0.00021361943800002337+0.00012206824612803757j)
(0.00024413649225607514+0.0007324094767682254j)
(0.00018310236919205636+0.0003967217926401645j)
(0.00024413649225607514+0.0006103412015363574j)
(6.1034123064018786e-05+0.0005187900387682021j)
(-3.0517061532009393e-05-9.155118459602818e-05j)
(0.00015258530038408935-0.00021361943800002337j)
(0.00021361943800002337+0.0008544777520000935j)
(0.00021361943800002337+0.0013732677325606346j)
(0.00012206824612803757+0.0007629265310242772j)
(0.0003662047383841127+0.00018310236919205636j)
(-6.1034123064018786e-05+0.0006103412015363574j)
(9.155118459602818e-05+0.0003662047383841127j)
(9.155118459602818e-05+0.00021361943800002337j)
(-0.00015258530038408935-3.0517061532009393e-05j)
(-0.0003051706007681787-0.00033568768412806094j)
(0.00024413649225607514+0.0005493070930242538j)
(0.00015258530038408935+0.001708955504000187j)
(9.155118459602818e-05+0.0019225748255848885j)
(0.00018310236919205636+0.00033568768412806094j)
(3.0517061532009393e-05+0.0007629265310242772j)
(0.0002746535465121269+0.0006103412015363574j)
(-3.0517061532009393e-05+0.000793443585280329j)
0.0003051706007681787j
(-3.0517061532009393e-05+0.00015258530038408935j)
(-0.00015258530038408935+0.00015258530038408935j)
(-0.00015258530038408935+0.00018310236919205636j)
(0.00015258530038408935+0.00033568768412806094j)
9.155118459602818e-05j
(-3.0517061532009393e-05+3.0517061532009393e-05j)
0.00018310236919205636j
(0.00015258530038408935+0.00033568768412806094j)
(0.0003967217926401645+0.0003662047383841127j)
(0.00015258530038408935+0.00021361943800002337j)
(9.155118459602818e-05-9.155118459602818e-05j)
(9.155118459602818e-05+0.0004577559302560985j)
0.00024413649225607514j
(-6.1034123064018786e-05-0.0002746535465121269j)
(0.00042723887600004673-0.00018310236919205636j)
(-0.00012206824612803757+0.00018310236919205636j)
(0.0002746535465121269+0.00033568768412806094j)
(-0.0003051706007681787+0.0003051706007681787j)
(-3.0517061532009393e-05+0.00015258530038408935j)
(-0.00018310236919205636+3.0517061532009393e-05j)
(-0.00015258530038408935+0.00033568768412806094j)
(0.00033568768412806094+0.00018310236919205636j)
(-0.0003967217926401645-9.155118459602818e-05j)
(-0.00015258530038408935-0.00021361943800002337j)
(0.00015258530038408935-0.00024413649225607514j)
(3.0517061532009393e-05+0.0003662047383841127j)
(0.0003662047383841127+0.00033568768412806094j)
(0.00024413649225607514+6.1034123064018786e-05j)
(0.0002746535465121269+0.00033568768412806094j)
(-3.0517061532009393e-05-6.1034123064018786e-05j)
(0.00033568768412806094+6.1034123064018786e-05j)
(-6.1034123064018786e-05+0.00012206824612803757j)
(-9.155118459602818e-05+0.000915511860512197j)
(0.00042723887600004673+0.0006408583140000701j)
(0.00015258530038408935+9.155118459602818e-05j)
(-9.155118459602818e-05-3.0517061532009393e-05j)
(9.155118459602818e-05-0.00033568768412806094j)
(0.00015258530038408935+3.0517061532009393e-05j)
0.0003051706007681787j
(9.155118459602818e-05+0.0008239606395363808j)
(6.1034123064018786e-05+0.0005493070930242538j)
0.00024413649225607514j
(6.1034123064018786e-05+0.0003662047383841127j)
